%!Adobe-FontList 1.20
%Locale:0x409

%BeginFont
Handler:DirectoryHandler
FontType:Type1
FontName:GothamRounded-LightItalic
FamilyName:Gotham Rounded
StyleName:Light Italic
MenuName:Gotham Rounded Light
StyleBits:1
WeightClass:300
WidthClass:5
AngleClass:1
FullName:Gotham Rounded Light Italic
WritingScript:Roman
OutlineFileName:/Users/catalinalosadasalado/Documents/PROF/Trabajos/LEVELCODE/SECRETARIA SALUD/MICROSITIO/Listas de Chaqueo/empaquetados/Autoevaluacion_de_droguerias Folder/Document fonts/GothamRounded-LightItalic.otf
DataFormat:sfntData
UsesStandardEncoding:yes
isCFF:yes
hasSVG:no
VariableFontType:NonVariableFont
FileLength:126664
FileModTime:490656228
NameArray:0,Mac,4,Gotham Rounded Light Italic
NameArray:0,Win,1,Gotham Rounded Light
NameArray:0,Win,16,Gotham Rounded
%EndFont

%BeginFont
Handler:DirectoryHandler
FontType:Type1
FontName:GothamRounded-MediumItalic
FamilyName:Gotham Rounded
StyleName:Medium Italic
MenuName:Gotham Rounded Medium
StyleBits:1
WeightClass:350
WidthClass:5
AngleClass:1
FullName:Gotham Rounded Medium Italic
WritingScript:Roman
OutlineFileName:/Users/catalinalosadasalado/Documents/PROF/Trabajos/LEVELCODE/SECRETARIA SALUD/MICROSITIO/Listas de Chaqueo/empaquetados/Autoevaluacion_de_droguerias Folder/Document fonts/GothamRounded-MediumItalic.otf
DataFormat:sfntData
UsesStandardEncoding:yes
isCFF:yes
hasSVG:no
VariableFontType:NonVariableFont
FileLength:133560
FileModTime:490656228
NameArray:0,Mac,4,Gotham Rounded Medium Italic
NameArray:0,Win,1,Gotham Rounded Medium
NameArray:0,Win,16,Gotham Rounded
%EndFont

%BeginFont
Handler:DirectoryHandler
FontType:Type1
FontName:GothamRounded-Bold
FamilyName:Gotham Rounded
StyleName:Bold
MenuName:Gotham Rounded Bold
StyleBits:0
WeightClass:400
WidthClass:5
AngleClass:0
FullName:Gotham Rounded Bold
WritingScript:Roman
OutlineFileName:/Users/catalinalosadasalado/Documents/PROF/Trabajos/LEVELCODE/SECRETARIA SALUD/MICROSITIO/Listas de Chaqueo/empaquetados/Autoevaluacion_de_droguerias Folder/Document fonts/GothamRoundedBold_21016.ttf
DataFormat:sfntData
UsesStandardEncoding:yes
isCFF:yes
hasSVG:no
VariableFontType:NonVariableFont
FileLength:133644
FileModTime:490656228
NameArray:0,Mac,4,Gotham Rounded Bold
NameArray:0,Win,1,Gotham Rounded Bold
NameArray:0,Win,16,Gotham Rounded
%EndFont

%BeginFont
Handler:DirectoryHandler
FontType:Type1
FontName:GothamRounded-Light
FamilyName:Gotham Rounded
StyleName:Light
MenuName:Gotham Rounded Light
StyleBits:0
WeightClass:300
WidthClass:5
AngleClass:0
FullName:Gotham Rounded Light
WritingScript:Roman
OutlineFileName:/Users/catalinalosadasalado/Documents/PROF/Trabajos/LEVELCODE/SECRETARIA SALUD/MICROSITIO/Listas de Chaqueo/empaquetados/Autoevaluacion_de_droguerias Folder/Document fonts/GothamRoundedLight_21020.ttf
DataFormat:sfntData
UsesStandardEncoding:yes
isCFF:yes
hasSVG:no
VariableFontType:NonVariableFont
FileLength:131844
FileModTime:490656228
NameArray:0,Mac,4,Gotham Rounded Light
NameArray:0,Win,1,Gotham Rounded Light
NameArray:0,Win,16,Gotham Rounded
%EndFont

%BeginFont
Handler:DirectoryHandler
FontType:Type1
FontName:GothamRounded-Medium
FamilyName:Gotham Rounded
StyleName:Medium
MenuName:Gotham Rounded Medium
StyleBits:0
WeightClass:350
WidthClass:5
AngleClass:0
FullName:Gotham Rounded Medium
WritingScript:Roman
OutlineFileName:/Users/catalinalosadasalado/Documents/PROF/Trabajos/LEVELCODE/SECRETARIA SALUD/MICROSITIO/Listas de Chaqueo/empaquetados/Autoevaluacion_de_droguerias Folder/Document fonts/GothamRoundedMedium_21022.ttf
DataFormat:sfntData
UsesStandardEncoding:yes
isCFF:yes
hasSVG:no
VariableFontType:NonVariableFont
FileLength:125676
FileModTime:490656228
NameArray:0,Mac,4,Gotham Rounded Medium
NameArray:0,Win,1,Gotham Rounded Medium
NameArray:0,Win,16,Gotham Rounded
%EndFont

