<?xml version="1.0" encoding="utf-8"?>
<!-- Generator: Adobe Illustrator 21.1.0, SVG Export Plug-In . SVG Version: 6.00 Build 0)  -->
<svg version="1.1" id="Capa_1" xmlns="http://www.w3.org/2000/svg" xmlns:xlink="http://www.w3.org/1999/xlink" x="0px" y="0px"
	 viewBox="0 0 640.1 412.1" style="enable-background:new 0 0 640.1 412.1;" xml:space="preserve">
<style type="text/css">
	.st0{fill:#004E67;}
	.st1{fill:#00708A;}
	.st2{fill:#898C29;}
	.st3{fill:#00586F;}
	.st4{fill:#7A8130;}
	.st5{fill:#007F98;}
	.st6{fill:#7D8026;}
	.st7{fill:#ABB82A;}
	.st8{fill:none;stroke:#FFFFFF;stroke-width:0.48;stroke-linecap:round;stroke-linejoin:round;}
	.st9{fill:#0096D6;stroke:#FFFFFF;stroke-width:0.5;stroke-miterlimit:10;}
	.st10{fill:#EC6C14;}
	.st11{fill:#005F87;}
	.st12{fill:none;stroke:#CC5016;stroke-width:0.48;stroke-linecap:round;stroke-linejoin:round;}
	.st13{fill:#EC6C14;stroke:#FFFFFF;stroke-miterlimit:10;}
	.st14{opacity:0.53;}
	.st15{fill:#FFFFFF;}
	.st16{font-family:'Gotham-Book';}
	.st17{font-size:21.5px;}
	.st18{opacity:0.25;}
	.st19{fill:none;}
	.st20{font-family:'RoundedMplus1c-Medium';}
	.st21{font-size:19px;}
</style>
<title>AutorregulaMapa quien me visita@1x</title>
<g id="Contenidos">
	<path class="st0" d="M11.8,227.1c-0.9,0-1.5,0.1-2,0.1c-1.2,0-1.8-0.3-2.6-1.6c-1.9-2.9-3.1-5.9-5.3-8.8c-1-1.1-1.6-2.6-1.7-4.1
		V226c0.1,1.5,0.7,2.9,1.7,4.1c2.1,2.9,3.3,5.9,5.3,8.8c0.8,1.3,1.4,1.6,2.6,1.6c0.5,0,1.2-0.1,2-0.1l15.6-0.8v-13.3L11.8,227.1z"/>
	<path class="st1" d="M639.8,221.1c-0.1,3.5-1.4,6.8-3.7,9.5l-0.4,0.5l-0.4,0.4l-0.1,0.1l-0.5,0.6l-0.4,0.4c0,0.1-0.1,0.1-0.1,0.2
		l-0.3,0.3l-0.1,0.1l-0.1,0.1c-0.1,0.1-0.2,0.2-0.3,0.3c0,0-0.1,0.1-0.1,0.1l-0.3,0.4v0.1l-0.2,0.3l-0.1,0.1
		c-0.1,0.1-0.1,0.2-0.2,0.3c0,0,0,0.1-0.1,0.1c-0.1,0.1-0.1,0.3-0.2,0.4l0,0c0,0.1-0.1,0.2-0.1,0.4v0.1c0,0.1,0,0.2,0,0.3
		c0,0,0,0.1,0,0.1c0,0.1,0,0.3,0,0.5v4.8c0,0,0,0.1,0,0.1c0,0.1-0.1,0.2-0.1,0.4l-0.1,0.3l-0.2,0.4l-0.2,0.3
		c-0.1,0.1-0.1,0.2-0.2,0.3c-0.1,0.1-0.1,0.2-0.2,0.3c-0.1,0.1-0.1,0.2-0.2,0.3l-0.2,0.3c-0.1,0.1-0.2,0.2-0.2,0.3
		c-0.2,0.2-0.4,0.4-0.6,0.6l-0.2,0.1c-0.2,0.2-0.4,0.3-0.6,0.4l-0.3,0.2c-0.2,0.1-0.3,0.2-0.5,0.3l-0.3,0.2l-0.6,0.2l-0.3,0.1
		l-0.2,0.1c-0.2,0-0.4,0.1-0.5,0.1l-0.3,0.1c-0.2,0-0.4,0.1-0.6,0.1c-0.1,0-0.2,0-0.3,0c-0.3,0-0.6,0-0.9,0.1
		c-1.3,0-2.6-0.3-3.9-0.7c-4.4-2.2-8.4-5.1-11.9-8.6c-3.5-3.6-10.2-5.3-15.8-5.3c-0.5,0-1,0-1.5,0h-0.2c-0.5,0-0.9,0.1-1.4,0.1h-0.2
		c-0.4,0.1-0.8,0.1-1.2,0.2l-0.2,0.1c-0.4,0.1-0.8,0.2-1.1,0.3h-0.1l-0.4,0.2l-1.3,0.6l-1.2,0.5h-0.1l-1.2,0.5l0,0l-1.3,0.5
		l-0.1,0.1l-0.6,0.2l0,0l-0.7,0.2l-0.2,0.1l-0.5,0.1l-0.2,0.1l-0.7,0.2l0,0l-0.7,0.2l-0.2,0.1l-0.6,0.1l-0.2,0.1l-0.8,0.2l0,0
		l-0.9,0.2l-0.3,0.1l-0.7,0.1l-0.3,0.1l-1,0.2l0,0l-1,0.2l-0.3,0.1L571,238l-0.3,0.1l-2.4,0.4h-0.4l-1,0.1l-0.4,0.1l-1.4,0.2
		c-2.3,0.3-4.6,0.4-6.9,0.4c-2.1,0-4.2-0.1-6.3-0.1l-0.3,0.4l-0.3,0.4l-0.4,0.5l-0.4,0.5l-0.4,0.5l-0.4,0.5l-0.3,0.5
		c-0.1,0.2-0.2,0.4-0.4,0.5s-0.2,0.3-0.3,0.5l-0.3,0.5c-0.1,0.1-0.2,0.3-0.3,0.5s-0.2,0.3-0.3,0.5s-0.2,0.3-0.3,0.4
		s-0.2,0.3-0.2,0.5s-0.2,0.3-0.2,0.4s-0.2,0.3-0.2,0.5s-0.1,0.3-0.2,0.4s-0.1,0.3-0.2,0.5s-0.1,0.3-0.2,0.4s-0.1,0.3-0.2,0.5
		s-0.1,0.3-0.1,0.4s-0.1,0.3-0.1,0.5s-0.1,0.3-0.1,0.4l-0.1,0.5c0,0.1-0.1,0.2-0.1,0.4s-0.1,0.3-0.1,0.5c0,0.1,0,0.2-0.1,0.3
		c0,0.2,0,0.3-0.1,0.5s0,0.2,0,0.3s0,0.3,0,0.5c0,0.1,0,0.2,0,0.3c0,0.2,0,0.5,0,0.7v13.3c0-0.2,0-0.5,0-0.7c0-0.1,0-0.2,0-0.3
		c0-0.2,0-0.3,0-0.5s0-0.2,0-0.3s0-0.3,0.1-0.5s0-0.2,0.1-0.3s0-0.3,0.1-0.5s0.1-0.2,0.1-0.4l0.1-0.5c0-0.1,0.1-0.2,0.1-0.4
		s0.1-0.3,0.1-0.5s0.1-0.3,0.1-0.4s0.1-0.3,0.2-0.5s0.1-0.3,0.2-0.4s0.1-0.3,0.2-0.5s0.1-0.3,0.2-0.4s0.2-0.3,0.2-0.5l0.2-0.4
		l0.2-0.5l0.3-0.4c0.1-0.2,0.2-0.3,0.3-0.5l0.3-0.5l0.3-0.5l0.3-0.5c0.1-0.2,0.2-0.3,0.4-0.5l0.3-0.5l0.4-0.5l0.4-0.5l0.4-0.5
		l0.4-0.5c0.2-0.2,0.4-0.5,0.6-0.7c2.1,0.1,4.3,0.2,6.3,0.2c2.3,0,4.6-0.1,6.9-0.4l1.4-0.2l0.4-0.1l1-0.1l0.4-0.1l2.4-0.4h0.3
		l0.8-0.1h0.3l2-0.4l0.3-0.1l0.7-0.1l0.3-0.1l0.9-0.2l0,0l0.8-0.2l0.2-0.1l0.6-0.1l0.2-0.1l0.7-0.2l0,0l0.7-0.2l0.2-0.1l0.5-0.2
		l0.2-0.1l0.7-0.2l0,0l0.6-0.2h0.1h0l1.3-0.5l0,0l1.2-0.5h0.1l1.2-0.5l1.3-0.6l0.5-0.2c0.4-0.1,0.7-0.2,1.1-0.3h0.2
		c0.4-0.1,0.8-0.2,1.2-0.2h0.2c0.5-0.1,0.9-0.1,1.4-0.1h0.2c0.5,0,1-0.1,1.5-0.1c5.6,0,12.3,1.8,15.8,5.3c3.5,3.4,7.5,6.3,11.9,8.6
		c1.2,0.5,2.5,0.7,3.9,0.7c0.3,0,0.6,0,0.9,0h0.3l0.6-0.1c0.1,0,0.2,0,0.3-0.1c0.1-0.1,0.2-0.1,0.3-0.2l0.2-0.1h0.1l0.2-0.1l0.6-0.2
		l0.3-0.1c0.2-0.1,0.3-0.2,0.5-0.3l0.2-0.1l0.1-0.1c0.2-0.1,0.4-0.3,0.6-0.4l0.2-0.1c0.2-0.2,0.4-0.4,0.6-0.6l0,0
		c0.1-0.1,0.1-0.2,0.2-0.3l0.2-0.3c0.1-0.1,0.1-0.2,0.2-0.3c0.1-0.1,0.1-0.2,0.2-0.3l0.2-0.3l0.2-0.3l0.2-0.3l0.1-0.3
		c0-0.1,0.1-0.2,0.1-0.4s0.1-0.2,0.1-0.3c0-0.1,0.1-0.2,0.1-0.4c0-0.1,0-0.2,0.1-0.2c0-0.1,0-0.3,0.1-0.4c0-0.1,0-0.1,0-0.2
		s0-0.4,0-0.6v-4.4c0-0.1,0.1-0.1,0.1-0.2c0,0,0-0.1,0.1-0.1c0-0.1,0.1-0.2,0.2-0.3l0.1-0.1c0.1-0.1,0.1-0.2,0.2-0.3c0,0,0,0,0-0.1
		l0.3-0.4l0.1-0.1l0.3-0.3l0.1-0.2l0.3-0.3l0.2-0.2l0.3-0.4l0.5-0.6l0.1-0.2l0.4-0.4l0.1-0.1l0.4-0.4c2.3-2.6,3.6-6,3.7-9.5
		c0-0.3,0-0.5,0-0.8v-13.4c0,0.3,0,0.5,0,0.8"/>
	<path class="st2" d="M73.2,266v13.3c-2.5-1-4.1-2.4-6.9-2.9c-7.4-1.2-16.1-1.1-23.2-1.9c-8.3-0.9-11.9-8.9-13.3-14.5
		c-1.8-6.7-1.5-13.7-2.3-20.5v-13.3c0.8,6.8,0.6,13.8,2.3,20.5c1.4,5.6,5,13.6,13.3,14.5c7.1,0.8,15.8,0.7,23.2,1.9
		C69.1,263.5,70.7,265,73.2,266"/>
	<path class="st3" d="M73.2,266v13.3l-0.3-0.1l-0.2-0.1l-0.3-0.1l-0.2-0.1l-0.2-0.1l-0.1,0l-0.4-0.2l-0.2-0.1l-0.1-0.1l-0.2-0.1l0,0
		l-0.2-0.1l0,0l-0.3-0.1l0,0l-0.3-0.1l0,0c-1.2-0.7-2.5-1.1-3.9-1.4c-4.8-0.8-10-1-15.1-1.2h-0.4h-0.4h-0.4h-0.4h-0.4l-1.2-0.2
		c-1.8-0.1-3.5-0.2-5.2-0.4c-1.2-0.1-2.4-0.4-3.6-0.9l-0.3-0.1l-0.3-0.1c-0.3-0.2-0.6-0.3-0.9-0.5c-2.6-1.7-4.7-4.1-6-6.9l-0.1-0.3
		c-0.2-0.4-0.4-0.8-0.6-1.2l-0.1-0.3l-0.1-0.4c-0.5-1.2-0.9-2.5-1.2-3.7c-0.2-1-0.5-1.9-0.6-2.9l-0.1-0.4l-0.1-0.9l-0.1-0.4
		l-0.1-0.6c-0.3-1.9-0.5-3.9-0.6-5.9v-0.6l0-0.7L28,247v-0.4l0-0.9v-0.1v-0.6V245l-0.1-0.9l0-0.7c-0.1-1.3-0.2-2.5-0.4-3.8v-13.3
		c0.3,2.8,0.5,5.6,0.6,8.4v0.3v0.3l0,0.6v0.3v0.3v0.3c0,0.4,0.1,0.9,0.1,1.3c0.1,1.2,0.2,2.4,0.4,3.6l0.1,0.5l0.1,0.5l0.1,0.7
		c0,0.2,0.1,0.4,0.1,0.6c0.2,0.9,0.4,1.8,0.6,2.7c0.1,0.4,0.2,0.8,0.3,1.2l0.1,0.4c0.1,0.2,0.1,0.4,0.2,0.6
		c1.4,4.1,3.8,8.7,8.2,10.9c0.4,0.2,0.8,0.4,1.3,0.6c1,0.4,2.1,0.7,3.2,0.8c1.1,0.1,2.3,0.2,3.4,0.3l0.7,0h0.4l1.8,0.1h0.7h0.4h0.4
		h0.4h0.4h0.4h0.4h0.4H53h0.4h0.7h0.8l0.8,0H56l1.5,0.1h0.8c2.7,0.2,5.4,0.4,8,0.8c1.4,0.2,2.7,0.7,3.9,1.4l0,0l0.2,0.1h0.1l0.2,0.1
		C71.5,264.9,72.3,265.5,73.2,266"/>
	<path class="st0" d="M72.8,289.8v-13.3c0,1.8,0.1,3.7,0.2,5.5v13.3C72.9,293.4,72.8,291.6,72.8,289.8"/>
	<path class="st4" d="M73.1,282v13.3c0-0.4-0.1-0.8-0.1-1.2v-0.5l0,0c-0.1-1.3-0.1-2.5-0.1-3.8v-13c0,1.4,0,2.8,0.1,4.2v0.3v0.3v0.1
		L73.1,282z"/>
	<path class="st5" d="M525.5,284.6v13.3c-1.1,0.2-2.1,0.2-3.2,0.2c-1.9,0-3.8-0.2-5.7-0.6v-13.3c1.9,0.4,3.8,0.6,5.7,0.6
		C523.4,284.9,524.4,284.8,525.5,284.6"/>
	<path class="st5" d="M525.5,284.6v13.3c-0.9,0.1-1.8,0.2-2.8,0.2h-2.4h-0.2h-0.4L519,298l0,0h-0.3l-0.5-0.1h-0.1l-0.7-0.1h-0.1
		h-0.2h-0.1h-0.1H517h-0.1h-0.1h-0.1h-0.1v-13.6h0.1c0.5,0.1,1.1,0.2,1.7,0.3l0.5,0.1h0h0.3h0.1c0.9,0.1,1.9,0.1,2.9,0.1
		c1,0,2-0.1,3-0.2L525.5,284.6L525.5,284.6z"/>
	<path class="st4" d="M81.2,287.1v13.3c-3.1-1.7-4.4-3.8-8.1-5.2V282C76.8,283.4,78.1,285.5,81.2,287.1"/>
	<path class="st0" d="M79.8,299.6l-0.2-0.2l-0.2-0.2L79,299l-0.3-0.3l-0.1-0.1l-0.1-0.1l-0.1-0.1l-0.4-0.3l-0.2-0.2l-0.2-0.2
		l-0.2-0.2l-0.2-0.2l-0.1-0.1l-0.1-0.1l-0.1-0.1l-0.2-0.2l-0.1-0.1l-0.1-0.1l-0.4-0.2l-0.1-0.1l-0.4-0.2c-0.7-0.4-1.5-0.8-2.3-1.1
		V282l0.2,0.1l0.2,0.1l0.3,0.1c0.2,0.1,0.5,0.2,0.7,0.3l0.4,0.2l0.4,0.2l0.4,0.2l0.1,0.1l0.4,0.2l0.1,0.1l0.1,0.1l0.2,0.2l0.1,0.1
		l0.1,0.1l0.1,0.1l0.1,0.1l0.2,0.2l0.3,0.3L78,285l0.1,0.1l0.1,0.1l0.3,0.2l0.8,0.6l0.2,0.2l0.2,0.2c0.4,0.3,0.9,0.6,1.3,0.8v13.3
		C80.7,300.2,80.3,300,79.8,299.6"/>
	<path class="st0" d="M159.7,288l-2,1.1c-0.6,0.3-1.2,0.7-1.9,1l-0.3,0.1c-0.5,0.3-1.1,0.5-1.6,0.8l-0.4,0.2
		c-0.6,0.3-1.2,0.5-1.9,0.8l-0.8,0.3l-0.4,0.1c-0.4,0.1-0.9,0.3-1.4,0.4c-1.6,0.4-3.3,0.6-5,0.5c-1.9,0-4.1-0.1-7-0.2v13.3
		c2.9,0,5,0.2,7,0.2c1.7,0,3.4-0.1,5-0.5c0.5-0.1,0.9-0.2,1.4-0.4l0.4-0.1l0.6-0.2l0.2-0.1c0.6-0.2,1.3-0.5,1.9-0.8l0.4-0.2
		c0.6-0.3,1.1-0.5,1.6-0.8l0.3-0.1c0.6-0.3,1.2-0.6,1.8-1l2-1.1c3.4-1.8,6.4-3.9,9.6-5.8v-13.3C166.1,284.1,163.1,286.2,159.7,288"
		/>
	<path class="st5" d="M559.7,278.2c0,0.2,0,0.5-0.1,0.7c0,0.1,0,0.1,0,0.2s-0.1,0.4-0.1,0.5l-0.1,0.3c-0.1,0.2-0.1,0.3-0.2,0.5
		l-0.1,0.2c-0.1,0.2-0.2,0.5-0.4,0.7l0,0c-0.1,0.2-0.3,0.5-0.4,0.7l-0.2,0.2c-0.1,0.2-0.2,0.3-0.4,0.5l-0.2,0.2l-0.2,0.3
		c-0.3,0.3-0.6,0.7-0.9,1c-0.5,0.5-1.1,1-1.6,1.5l-0.5,0.5c-0.4,0.3-0.8,0.7-1.2,1l-0.7,0.5c-0.4,0.3-0.7,0.6-1.1,0.9
		s-0.5,0.4-0.7,0.5l-1.1,0.8c-0.4,0.2-0.7,0.5-1.1,0.7c-0.2,0.1-0.3,0.2-0.5,0.4c-0.6,0.4-1.2,0.7-1.8,1l-0.1,0.1
		c-0.6,0.3-1.2,0.6-1.7,0.8l-0.6,0.2c-0.6,0.2-1.1,0.4-1.7,0.6c-1.4,0.5-2.9,0.7-4.4,0.7c-3.1,0-6.1-1.3-6.3-5.3
		c-0.1-1.5-1.8-2.8-3.8-3.7c-0.6-0.3-1.3-0.6-2-0.8V298c2.6,0.9,5.6,2.5,5.7,4.5c0.2,4.1,3.2,5.3,6.3,5.3c1.5,0,3-0.3,4.4-0.7
		l0.8-0.3l0.9-0.4l0.6-0.2c0.6-0.3,1.2-0.5,1.7-0.8l0.1-0.1c0.6-0.3,1.2-0.6,1.8-1l0.5-0.3c0.3-0.2,0.5-0.3,0.8-0.5l0.3-0.2l1.1-0.8
		l0.7-0.6c0.4-0.3,0.7-0.6,1.1-0.9l0.7-0.5c0.4-0.3,0.8-0.7,1.2-1c0.2-0.1,0.3-0.3,0.5-0.4c0.5-0.5,1.1-1,1.6-1.5
		c0.3-0.3,0.6-0.6,0.9-1c0,0,0.1-0.1,0.1-0.1c0,0,0.1-0.1,0.1-0.2l0.2-0.2c0.1-0.1,0.2-0.3,0.4-0.5l0.2-0.2c0.2-0.2,0.3-0.5,0.4-0.7
		l0,0c0.1-0.2,0.2-0.5,0.4-0.7l0.1-0.2c0.1-0.2,0.1-0.3,0.2-0.5s0-0.2,0.1-0.3s0.1-0.3,0.1-0.5s0-0.1,0-0.2c0.1-0.2,0.1-0.5,0.1-0.7
		c0-0.8,0.1-1.6,0.1-2.5v-13.3C559.7,276.6,559.7,277.4,559.7,278.2"/>
	<path class="st6" d="M137,307.5v2.1c0,0.5-0.1,1-0.1,1.4v-13.3c0.1-0.5,0.1-1,0.1-1.4l0,0v-1.3c0-0.3,0-0.5,0-0.7v-0.4l0,0v-0.3
		c0-0.2,0-0.3,0.1-0.5v13.3C137,306.7,137,307.1,137,307.5"/>
	<path class="st1" d="M516.8,288c0,0.1,0,0.2-0.1,0.3c0,0.2-0.1,0.4-0.2,0.6c0,0.1-0.1,0.2-0.1,0.3c-0.1,0.2-0.2,0.4-0.3,0.6
		c0,0.1-0.1,0.2-0.1,0.3c-0.1,0.2-0.3,0.4-0.5,0.6l-0.1,0.1c-0.2,0.2-0.5,0.5-0.7,0.7c-0.1,0.1-0.2,0.1-0.2,0.2s-0.4,0.3-0.6,0.5
		s-0.4,0.3-0.6,0.4c-0.4,0.2-0.7,0.4-1.1,0.6l-0.4,0.2c-0.3,0.1-0.5,0.2-0.8,0.3s-0.8,0.2-1.1,0.4l-0.4,0.1
		c-0.3,0.1-0.6,0.1-0.9,0.2l-0.4,0.1c-0.4,0.1-0.8,0.1-1.2,0.2l0,0c-0.4,0-0.9,0.1-1.3,0.1h-0.4l-1,0h-0.4h-1.4c-0.8,0-1.7,0-2.6,0
		l-9,5.2l-0.3,0.3l-0.1,0.1l-0.1,0.2l-0.2,0.2L490,301l-0.2,0.2l-0.1,0.2l-0.1,0.2c0,0.1,0,0.1-0.1,0.2c0,0.1-0.1,0.1-0.1,0.2
		l-0.1,0.1c0,0.1,0,0.1-0.1,0.2c0,0,0,0.1,0,0.1c0,0.1,0,0.1,0,0.2s0,0.1,0,0.1s0,0.2,0,0.3v13.3c0-0.1,0-0.2,0-0.3s0-0.1,0-0.1
		s0-0.1,0-0.2c0,0,0-0.1,0-0.1c0-0.1,0.1-0.1,0.1-0.2l0.1-0.1c0-0.1,0.1-0.1,0.1-0.2l0.1-0.2c0-0.1,0.1-0.2,0.1-0.2l0.1-0.2l0.2-0.2
		l0.1-0.2l0.2-0.2l0.1-0.2c0.1-0.1,0.2-0.3,0.4-0.4c3-1.7,6-3.5,9-5.2c0.9,0,1.8,0,2.6,0h1.4h0.4l1,0h0.4c0.5,0,0.9-0.1,1.3-0.1l0,0
		c0.4,0,0.8-0.1,1.2-0.2l0.4-0.1c0.3,0,0.6-0.1,0.9-0.2l0.4-0.1c0.4-0.1,0.8-0.2,1.1-0.4l0,0c0.3-0.1,0.5-0.2,0.8-0.3l0.4-0.2
		c0.4-0.2,0.8-0.4,1.1-0.6l0.5-0.3l0.1-0.1c0.2-0.1,0.4-0.3,0.6-0.5c0.1-0.1,0.2-0.1,0.2-0.2c0.3-0.2,0.5-0.4,0.7-0.7l0,0l0.1-0.1
		c0.2-0.2,0.3-0.4,0.5-0.6l0.1-0.3c0.1-0.2,0.2-0.4,0.3-0.6c0-0.1,0.1-0.2,0.1-0.3s0.1-0.4,0.2-0.6c0-0.1,0-0.2,0.1-0.3
		c0.1-0.3,0.1-0.7,0.1-1V287C516.9,287.3,516.9,287.7,516.8,288"/>
	<path class="st0" d="M113,298.9c-0.1-3.4-2-4.8-5-5.6c-1.5-0.4-3.1-0.6-4.7-0.5c-0.4,0-0.8,0-1.3,0h-0.3c-0.3,0-0.7,0.1-1,0.1h-0.3
		c-0.4,0.1-0.8,0.1-1.2,0.2l-0.3,0.1c-0.3,0.1-0.6,0.2-0.9,0.3l-0.2,0.1l-0.2,0.1c-0.2,0.1-0.4,0.2-0.7,0.3l-0.3,0.1
		c-0.3,0.1-0.6,0.3-0.9,0.5s-0.4,0.2-0.6,0.4l-0.2,0.1l-0.6,0.3l-0.2,0.1c-0.2,0.1-0.5,0.2-0.8,0.3s-0.8,0.3-1.2,0.4l-0.3,0.1
		c-0.3,0.1-0.7,0.2-1,0.2l-0.4,0.1c-0.3,0-0.6,0.1-1,0.1h-0.4c-0.4,0-0.9,0.1-1.3,0.1c-3.8,0-7.3-1.5-7.3-6.2v13.3
		c0,4.7,3.5,6.2,7.3,6.2c0.4,0,0.9,0,1.3-0.1h0.4c0.3,0,0.6-0.1,1-0.1l0.4-0.1c0.3-0.1,0.7-0.1,1-0.2l0.3-0.1
		c0.4-0.1,0.8-0.2,1.2-0.4h0.1c0.2-0.1,0.5-0.2,0.7-0.3l0.2-0.1l0.6-0.3l0.2-0.1c0.2-0.1,0.4-0.2,0.6-0.4c0.3-0.2,0.6-0.3,0.9-0.5
		l0.3-0.1l0.7-0.3l0.3-0.1l0.9-0.3l0.3-0.1c0.4-0.1,0.8-0.2,1.2-0.2h0.3l1-0.1h0.3c0.4,0,0.9,0,1.3,0c1.6,0,3.1,0.2,4.7,0.5
		c2.9,0.7,4.8,2.1,5,5.5c0.1,2.5,2.6,4.7,6.1,6.1V305C115.6,303.6,113.1,301.3,113,298.9"/>
	<path class="st4" d="M120.1,310.8v13.3c0-1.6-1.1-3.4-1.1-5.1v-13.3C119,307.4,120.1,309.2,120.1,310.8"/>
	<path class="st0" d="M120.1,310.8v13.3c0-1.6-1.1-3.4-1.1-5.1v-13.3c0,0.3,0,0.5,0.1,0.8c0,0.1,0,0.1,0,0.2s0,0.2,0.1,0.3v0.2v0.1
		v0.1v0.1v0.1v0.2v0.2v0.2v0.1v0.2l0.1,0.2c0.3,0.7,0.4,1.5,0.5,2.3"/>
	<path class="st3" d="M148.1,316.9c0,0,0-0.1,0-0.1c0-0.1,0-0.3,0.1-0.4V303c0,0.1,0,0.3-0.1,0.4v0.1c0,0.1-0.1,0.2-0.1,0.3
		l-0.1,0.1c-0.1,0.1-0.2,0.3-0.3,0.4l-0.1,0.1c-0.1,0.1-0.2,0.2-0.4,0.3L147,305c-0.1,0.1-0.2,0.2-0.4,0.2l-0.4,0.2l-0.4,0.2
		l-0.4,0.2l-0.6,0.2l-0.3,0.1c-0.3,0.1-0.7,0.2-1.1,0.3c-0.4,0.1-0.7,0.2-1.1,0.3l0,0l-0.3,0.1c-0.2,0.1-0.4,0.1-0.5,0.2l-0.4,0.2
		l-0.5,0.3l-0.1,0l-0.4,0.3L140,308c-0.2,0.2-0.4,0.4-0.6,0.5l-0.2,0.2l-0.4,0.4l-0.2,0.2l-0.2,0.2l-0.1,0.1
		c-0.2,0.2-0.4,0.5-0.6,0.8l-0.1,0.1c-0.3,0.3-0.5,0.7-0.8,1l-0.6,0.7l-0.2,0.3c-0.2,0.3-0.5,0.6-0.7,0.9s-0.4,0.4-0.6,0.6l-0.2,0.2
		c-0.1,0.1-0.3,0.3-0.4,0.4l-0.2,0.2c-0.1,0.1-0.3,0.2-0.4,0.4l-0.3,0.2c-0.2,0.2-0.4,0.3-0.7,0.4c-0.2,0.1-0.4,0.2-0.6,0.3
		l-0.2,0.1c-0.2,0.1-0.5,0.2-0.8,0.2h-0.1c-0.2,0.1-0.5,0.1-0.8,0.2h-0.2c-0.3,0-0.5,0-0.8,0c-0.7,0-1.3-0.1-1.9-0.4
		c-0.6-0.4-1.2-0.6-1.9-0.6c-0.2,0-0.4,0-0.5,0.1l0,0c-0.1,0-0.2,0.1-0.3,0.1l-0.1,0l-0.1,0.1l-0.1,0.1c0,0-0.1,0.1-0.1,0.2
		l-0.1,0.1c-0.1,0.1-0.1,0.3-0.1,0.5c0,0.2-0.1,0.4-0.1,0.6c0,0,0,0.1,0,0.1c-0.1,0.2-0.2,0.4-0.2,0.6v0.1c-0.1,0.2-0.2,0.4-0.3,0.6
		l-0.1,0.1c-0.1,0.2-0.3,0.4-0.4,0.6l-0.1,0.1c-0.2,0.2-0.4,0.4-0.6,0.6l-0.1,0.1l-0.1,0.1l-0.1,0.1l-0.1,0h-0.1l-0.3,0.1H121
		l-0.5,0.1h-0.1H120h-0.1h-0.5c-2,0-4.4-0.7-4.4-2.6v13.3c0,1.9,2.4,2.6,4.4,2.6h0.5h0.1h0.4h0.1l0.5-0.1h0.1c0.1,0,0.2,0,0.3-0.1
		h0.1h0.1l0.1,0l0.1-0.1l0.1,0h0.1l0.1-0.1c0.2-0.2,0.4-0.4,0.6-0.6c0,0,0,0,0.1-0.1l0,0c0.2-0.2,0.3-0.4,0.4-0.6l0.1-0.1
		c0.1-0.2,0.2-0.4,0.3-0.6v-0.1c0.1-0.2,0.2-0.4,0.2-0.6c0,0,0-0.1,0-0.1c0.1-0.2,0.1-0.4,0.1-0.6c0-0.2,0-0.3,0.1-0.5l0.1-0.1
		c0-0.1,0.1-0.2,0.2-0.2l0.1-0.1c0.1-0.1,0.2-0.1,0.4-0.2c0.2-0.1,0.4-0.1,0.5-0.1c0.7,0,1.4,0.3,1.9,0.6c0.6,0.3,1.3,0.5,1.9,0.5
		c0.3,0,0.5,0,0.8-0.1h0.2c0.2,0,0.5-0.1,0.8-0.1h0.1l0.6-0.2l0.2-0.1l0.2-0.1c0.2-0.1,0.4-0.2,0.6-0.3l0.5-0.3
		c0.1,0,0.1-0.1,0.2-0.1l0.3-0.2c0.1-0.1,0.3-0.2,0.4-0.4l0.2-0.2l0.4-0.4l0.2-0.2c0.2-0.2,0.4-0.4,0.6-0.6l0,0
		c0.3-0.3,0.5-0.6,0.7-0.9l0.2-0.3l0.6-0.7c0.3-0.4,0.5-0.7,0.8-1c0,0,0-0.1,0.1-0.1c0.2-0.3,0.4-0.5,0.6-0.8l0.3-0.4l0.2-0.2
		l0.4-0.4l0.2-0.2c0.2-0.2,0.4-0.4,0.6-0.5l0.1-0.1c0.2-0.1,0.4-0.3,0.5-0.4s0.3-0.2,0.5-0.3l0.4-0.2c0.2-0.1,0.4-0.2,0.5-0.2
		l0.4-0.2c0.3-0.1,0.7-0.2,1.1-0.3c0.4-0.1,0.8-0.2,1.1-0.3l0.3-0.1l0.4-0.1l0.2-0.1l0.4-0.2l0.4-0.2l0.4-0.2l0.2-0.1l0.1-0.1
		l0.1-0.1c0.1-0.1,0.2-0.2,0.4-0.3l0.1-0.1l0,0c0.1-0.1,0.2-0.2,0.3-0.4l0.1-0.1c0.1-0.1,0.1-0.2,0.1-0.3"/>
	<path class="st4" d="M343.6,319.1c-3.5,0-7.1-0.1-10.6-0.1c-0.3,0.3-0.6,0.5-0.9,0.8l-0.3,0.2c-0.2,0.2-0.4,0.3-0.7,0.5
		s-0.6,0.4-0.9,0.6l-0.2,0.1l-0.8,0.4l-0.3,0.1l-0.8,0.3l-0.3,0.1c-0.3,0.1-0.7,0.2-1,0.3l-0.2,0l-0.9,0.2h-0.3
		c-0.4,0-0.7,0.1-1.1,0.1c-4.3-0.4-3.8-6-7.9-6c-1.7,0.2-3.4,0.3-5.2,0.3c-1.5,0-2.9-0.1-4.1-0.1h-0.6h-0.2H306h-0.2l-0.3,0.1
		l-0.2,0l-0.3,0.1h-0.1h-0.1l-0.2,0.1l-0.1,0.1l-0.2,0.1l-0.1,0l0,0c-0.2,0.1-0.3,0.2-0.5,0.4l0,0l0,0c-0.1,0.1-0.2,0.3-0.3,0.4v0.1
		c-0.1,0.1-0.1,0.3-0.2,0.4c0,0,0,0.1,0,0.1c0,0.1-0.1,0.3-0.1,0.5v0.1c0,0.2,0,0.3,0,0.5v13.3c0-0.2,0-0.3,0-0.5v-0.1
		c0-0.2,0.1-0.3,0.1-0.5v-0.1c0-0.1,0.1-0.3,0.2-0.4v-0.1c0.1-0.1,0.2-0.3,0.3-0.4l0,0c0.1-0.2,0.3-0.3,0.5-0.4l0.1-0.1l0.2-0.1
		l0.1-0.1l0.2-0.1l0.2-0.1l0.3-0.1h0.2c0.1,0,0.2,0,0.3-0.1h0.2h0.4h0.2c0.2,0,0.4,0,0.6,0c1.2,0,2.6,0.1,4.1,0.1
		c1.7,0,3.5-0.1,5.2-0.3c4.1,0,3.7,5.7,7.9,6c0.4,0,0.7,0,1.1-0.1h0.3c0.3,0,0.6-0.1,0.9-0.2l0.2,0l0.9-0.3l0.1,0l0.3-0.1
		c0.3-0.1,0.5-0.2,0.8-0.3l0.3-0.1c0.3-0.1,0.5-0.3,0.8-0.4l0.2-0.1c0.3-0.2,0.6-0.3,0.8-0.5l0.1-0.1c0.2-0.2,0.5-0.3,0.7-0.5
		l0.3-0.2c0.3-0.2,0.6-0.5,0.9-0.8c7.1,0,14.1,0.2,21.2,0.3v-13.3L343.6,319.1"/>
	<path class="st5" d="M507.2,335L507.2,335c0.1-0.3,0.3-0.5,0.4-0.7l0.1-0.2c0.1-0.2,0.2-0.4,0.3-0.7c0,0,0,0,0,0
		c0.1-0.2,0.1-0.5,0.2-0.7v-0.2c0-0.2,0-0.5,0-0.8v-13.3c0,0.3,0,0.5,0,0.8v0.2c0,0.2-0.1,0.5-0.2,0.7l0,0c-0.1,0.2-0.2,0.5-0.3,0.7
		l-0.1,0.2c-0.1,0.2-0.2,0.5-0.4,0.7v0.1c-0.1,0.2-0.3,0.4-0.4,0.6l-0.1,0.1c-0.1,0.1-0.2,0.2-0.2,0.3c-0.2,0.2-0.4,0.4-0.6,0.6
		l-0.3,0.2c-0.3,0.2-0.5,0.4-0.8,0.6l-0.1,0.1c-0.4,0.3-0.8,0.5-1.2,0.7l-0.3,0.1c-0.4,0.2-0.9,0.4-1.4,0.6l-0.2,0
		c-0.3,0.1-0.7,0.2-1.1,0.3l-0.4,0.1l-0.9,0.2l-0.5,0.1c-0.3,0-0.6,0.1-1,0.1h-0.4c-0.5,0-0.9,0.1-1.4,0.1c-2.1,0-4.2-0.3-6.2-1
		c-4.5-1.5-3.2-6.3-7.5-8.2c-1.1-0.5-2.3-0.8-3.5-0.8c-0.2,0-0.5,0-0.7,0h-0.2l-0.5,0.1h-0.2l-0.4,0.1l-0.2,0.1l-0.5,0.1h-0.1l0,0
		c-0.3,0.1-0.5,0.2-0.8,0.3l-0.1,0.1c-0.2,0.1-0.5,0.3-0.7,0.4l0,0l-0.1,0.1c-0.1,0.1-0.3,0.2-0.4,0.3l-0.1,0.1
		c-0.1,0.1-0.3,0.3-0.4,0.4l0,0l-0.1,0.1c-0.1,0.1-0.1,0.2-0.2,0.3l-0.1,0.1l-0.1,0.2l-0.1,0.1c0,0.1-0.1,0.2-0.1,0.3v0.1
		c0,0.1,0,0.3,0,0.4v13.6c0-0.1,0-0.3,0-0.4c0,0,0-0.1,0-0.1c0-0.1,0.1-0.2,0.1-0.3l0.1-0.1c0-0.1,0.1-0.2,0.1-0.2l0.1-0.1
		c0.1-0.1,0.1-0.2,0.2-0.3l0.1-0.1c0.1-0.1,0.3-0.3,0.4-0.4l0.1-0.1c0.1-0.1,0.3-0.2,0.4-0.3l0.1-0.1c0.2-0.1,0.4-0.3,0.7-0.4
		l0.1-0.1c0.2-0.1,0.5-0.2,0.8-0.3l0.2,0l0.5-0.1l0.2-0.1c0.1,0,0.3-0.1,0.4-0.1l0.2,0l0.5-0.1h0.2c0.2,0,0.5,0,0.7,0
		c1.2,0,2.4,0.3,3.5,0.8c4.2,1.9,2.9,6.7,7.5,8.2c2,0.7,4.1,1,6.2,1c0.5,0,1,0,1.4-0.1h0.4c0.3,0,0.6-0.1,1-0.1l0.5-0.1l0.9-0.2
		l0.4-0.1c0.4-0.1,0.7-0.2,1.1-0.3h0.1l0,0c0.5-0.2,0.9-0.4,1.4-0.6l0.3-0.1c0.4-0.2,0.8-0.4,1.2-0.7l0,0l0.1-0.1
		c0.3-0.2,0.5-0.4,0.8-0.6l0.3-0.2c0.2-0.2,0.4-0.4,0.6-0.6l0.1-0.1l0.1-0.1l0.1-0.1c0.1-0.2,0.3-0.4,0.4-0.6"/>
	<path class="st2" d="M360.1,327.4c-2.5,0.1-3.9,0.1-5.3,0.1c-0.2-2.8-0.4-5.5-0.6-8.3v13.3c0.2,2.7,0.4,5.5,0.6,8.2
		c1.4,0,2.8,0,5.3-0.1c1.2-0.2,2.3,0.6,2.4,1.8c0,0.2,0,0.4,0,0.6v-13.3c0.2-1.2-0.6-2.3-1.8-2.4
		C360.5,327.3,360.3,327.3,360.1,327.4"/>
	<path class="st3" d="M170.1,342.7l0.2-0.2c0.1-0.2,0.3-0.3,0.4-0.5l0.2-0.2l0.5-0.4l0.1-0.1c0.3-0.2,0.5-0.3,0.8-0.5l0.2-0.1
		l0.8-0.3h0.1c0.4-0.2,0.9-0.3,1.4-0.4h0.1c0.5-0.1,1-0.2,1.5-0.3l0,0c0.5-0.1,1-0.1,1.6-0.2l0,0l1.7-0.1v-13.4l-1.7,0.1l0,0
		c-0.5,0-1.1,0.1-1.6,0.2l0,0c-0.5,0.1-1,0.1-1.5,0.3h-0.1c-0.5,0.1-0.9,0.2-1.4,0.4l0,0h-0.1c-0.3,0.1-0.5,0.2-0.8,0.3l-0.2,0.1
		c-0.3,0.1-0.5,0.3-0.8,0.5l0,0c0,0-0.1,0.1-0.1,0.1l-0.5,0.4l-0.2,0.2l-0.4,0.4c0,0-0.1,0.1-0.1,0.1l-0.1,0.1l-0.3,0.4
		c-0.1,0.1-0.1,0.1-0.2,0.2c-0.2,0.2-0.3,0.5-0.4,0.8c-0.1,0.2-0.2,0.4-0.4,0.5c0,0-0.1,0.1-0.1,0.1c-0.2,0.2-0.4,0.4-0.6,0.5
		c-0.1,0.1-0.2,0.1-0.3,0.2l-0.1,0.1l-0.4,0.2h-0.1l0,0c-0.2,0.1-0.4,0.1-0.7,0.2h-0.2c-0.2,0-0.5,0.1-0.7,0.1c-2.1,0-4-1.2-4.8-3.2
		c-1-2.4-2.2-4.8-3.6-7c-0.4-0.8-0.9-1.6-1.3-2.4c-0.8-1.5-1.6-3.1-2.2-4.7c-0.6-1.5-0.9-3.2-0.9-4.8v13.3c0,6.5,5.5,12.6,8,18.9
		c0.8,2,2.7,3.2,4.8,3.2c0.2,0,0.5,0,0.7-0.1h0.2c0.2,0,0.5-0.1,0.7-0.2l0,0h0.1c0.1,0,0.3-0.1,0.4-0.2l0.1-0.1l0.3-0.1l0,0
		c0.2-0.2,0.4-0.3,0.6-0.5l0.1-0.1v-0.1c0.2-0.2,0.3-0.4,0.4-0.6c0.1-0.3,0.3-0.5,0.4-0.7l0.2-0.2
		C169.9,342.9,170,342.8,170.1,342.7"/>
	<path class="st0" d="M210.4,327.8c-1.3-0.5-2.7-0.8-4.1-0.7c-0.3,0-0.6,0-0.9,0h-0.3l-0.7,0.1h-0.2c-0.3,0-0.6,0.1-0.9,0.2h-0.1
		c-0.2,0-0.4,0.1-0.6,0.2h-0.1l-0.1,0.1l-0.2,0.1l-0.3,0.1l-0.2,0.1l-0.1,0l-0.2,0.2c-0.3,0.3-0.7,0.6-1,0.9l-0.3,0.2l-0.8,0.6
		l-0.2,0.2c-0.3,0.3-0.7,0.5-1,0.7l-0.2,0.1c-0.3,0.2-0.5,0.3-0.8,0.5c-0.1,0-0.2,0.1-0.3,0.1c-0.3,0.2-0.6,0.3-0.9,0.5h-0.1
		c-0.3,0.1-0.6,0.2-0.9,0.3l-0.2,0c-0.3,0.1-0.6,0.2-0.9,0.2h-0.1c-0.3,0-0.6,0.1-0.9,0.1c-1.8,0-3.4-1-4.6-3.1s-5.1-3.6-8.4-3.6
		v13.3c3.3,0,7.2,1.5,8.4,3.6s2.8,3.1,4.6,3.1c0.3,0,0.6,0,0.9-0.1h0.1c0.3-0.1,0.6-0.1,0.9-0.2l0.2-0.1l0.2-0.1
		c0.2-0.1,0.4-0.2,0.6-0.3h0.1c0.3-0.1,0.6-0.3,0.9-0.5l0.3-0.1c0.3-0.1,0.5-0.3,0.8-0.5l0.2-0.1h0.1c0.3-0.2,0.6-0.4,0.9-0.7
		l0.2-0.2c0.3-0.2,0.5-0.4,0.8-0.6l0.3-0.2c0.3-0.3,0.7-0.6,1-0.9c0.1-0.1,0.2-0.2,0.3-0.2l0.2-0.1l0.3-0.1l0.2-0.1l0.3-0.1
		c0.2-0.1,0.4-0.1,0.6-0.2h0.1c0.3-0.1,0.6-0.1,0.9-0.1h0.2c0.2,0,0.5-0.1,0.7-0.1h0.3c0.3,0,0.6,0,0.9,0c1.4-0.1,2.8,0.2,4.1,0.7
		c1.3,0.8,2,2.1,2,3.6v-13.3C212.4,330,211.7,328.6,210.4,327.8"/>
	<path class="st1" d="M481.2,342.3c0.1-0.1,0.1-0.2,0.2-0.3l0.1-0.2c0-0.1,0.1-0.2,0.1-0.3c0-0.1,0-0.1,0-0.2c0-0.2,0-0.3,0-0.5
		v-13.3c0,0.2,0,0.3,0,0.5c0,0.1,0,0.1,0,0.2c0,0.1-0.1,0.2-0.1,0.3l-0.1,0.2l-0.2,0.3l-0.2,0.2l-0.2,0.3c-0.1,0.1-0.3,0.3-0.4,0.4
		l-0.1,0.1l-0.5,0.4l-0.1,0.1c-0.2,0.2-0.4,0.3-0.6,0.5l-0.1,0.1c-0.2,0.2-0.5,0.3-0.8,0.5c-2.8,1.5-5.7,2.9-8.6,4.2V349
		c3-1.2,5.8-2.6,8.6-4.2c0.3-0.2,0.6-0.3,0.8-0.5l0.1-0.1l0.1-0.1c0.2-0.1,0.4-0.3,0.5-0.4l0.1-0.1c0.2-0.1,0.3-0.3,0.5-0.4l0.1-0.1
		l0.4-0.4l0,0l0.2-0.3L481.2,342.3"/>
	<path class="st0" d="M200.9,350.1c-3.8,0.3-4.7,0-5.5-0.3c-0.8-0.4-1.6-0.6-2.4-0.6c-1.9,0.1-2.9-0.3-2.9-1.1v13.3
		c0,0.9,1,1.2,2.9,1.1c0.8,0.1,1.7,0.3,2.4,0.6c0.8,0.3,1.7,0.6,5.5,0.3c1.9,0.2,3.8,0.6,5.7,1.2c0.3,0.1,0.5,0.1,0.8,0.2v-13.3
		C205.3,351.1,203.1,350.1,200.9,350.1"/>
	<path class="st4" d="M361.5,352.1v13.3c0-2.6-3.4-3.5-6.7-4.7c-1.9-0.6-3.5-2.2-3.5-3.9v-13.3c0,1.6,1.6,3.2,3.5,3.9
		C358.1,348.6,361.5,349.5,361.5,352.1"/>
	<path class="st4" d="M361.5,352.1v13.3c0-2.6-3.4-3.5-6.7-4.6c-1.1-0.4-2-1-2.7-1.9l0,0l-0.1-0.2l-0.1-0.1
		c-0.1-0.1-0.1-0.2-0.2-0.3c-0.2-0.4-0.4-0.9-0.4-1.4v-13.3c0,0.5,0.2,1,0.4,1.4l0,0.1v0.1l0,0.1c0.1,0.1,0.1,0.2,0.2,0.3
		c0.1,0.2,0.3,0.4,0.5,0.5c0.7,0.6,1.5,1.1,2.3,1.4c1,0.4,2.1,0.7,3,1.1l0.5,0.2c0.9,0.3,1.6,0.8,2.3,1.5l0.3,0.3l0.1,0.2
		C361.3,351.1,361.4,351.6,361.5,352.1"/>
	<path class="st5" d="M469.3,349.9c-0.1,0.3-0.2,0.5-0.2,0.8c0,0.1-0.1,0.2-0.1,0.2c-0.1,0.2-0.1,0.3-0.2,0.5s-0.1,0.2-0.2,0.3
		c-0.1,0.1-0.2,0.3-0.3,0.4l-0.2,0.3c-0.1,0.1-0.2,0.2-0.3,0.4s-0.3,0.3-0.5,0.5c-0.1,0.1-0.2,0.2-0.2,0.2c-0.2,0.2-0.5,0.4-0.7,0.5
		l-0.1,0.1l-0.6,0.4l-0.3,0.2c-0.3,0.2-0.6,0.3-1,0.5s-0.7,0.3-1,0.4l-0.3,0.1c-0.2,0.1-0.5,0.1-0.8,0.2l-0.4,0.1
		c-0.3,0.1-0.5,0.1-0.8,0.1l-0.4,0c-0.4,0-0.8,0.1-1.2,0.1c-0.4,0-0.9,0-1.3-0.1c-0.4-0.1-0.9-0.1-1.3-0.2v13.3
		c0.9,0.2,1.7,0.3,2.6,0.3c0.4,0,0.8,0,1.2-0.1l0.4,0c0.3,0,0.5-0.1,0.8-0.1l0.4-0.1c0.3-0.1,0.5-0.1,0.8-0.2l0.3-0.1h0.1l0.9-0.4
		c0.3-0.1,0.7-0.3,1-0.5c0.1-0.1,0.2-0.1,0.3-0.2c0.2-0.1,0.4-0.2,0.6-0.4l0,0l0.1-0.1c0.2-0.2,0.5-0.4,0.7-0.5l0.2-0.2
		c0.2-0.1,0.3-0.3,0.5-0.5l0.1-0.1c0.1-0.1,0.1-0.2,0.2-0.2l0.2-0.3c0.1-0.1,0.2-0.3,0.3-0.4c0.1-0.1,0.1-0.2,0.2-0.3
		s0.2-0.3,0.2-0.5c0-0.1,0-0.2,0.1-0.3c0.1-0.2,0.2-0.5,0.2-0.8c0.4-1.7,0.6-3.5,0.6-5.3v-13.3C469.9,346.4,469.7,348.2,469.3,349.9
		"/>
	<path class="st4" d="M316.4,363.6l0.1-0.1c0-0.1,0.1-0.2,0.1-0.3v-0.1c0-0.1,0-0.3,0-0.4v-13.3c0,0.1,0,0.3,0,0.4v0.1
		c0,0.1-0.1,0.2-0.1,0.3l-0.1,0.1l-0.1,0.2l-0.1,0.1l-0.2,0.2l-0.2,0.1c-0.1,0.1-0.2,0.2-0.3,0.2c-0.1,0-0.1,0.1-0.2,0.1
		c-0.2,0.1-0.4,0.2-0.5,0.3l-0.1,0.1c-0.2,0.1-0.4,0.2-0.6,0.3l-0.1,0.1l-0.9,0.3l-1.1,0.4h-0.1l0,0l-0.7,0.3H311l-0.7,0.3l-0.1,0
		l-0.7,0.3l0,0c-0.2,0.1-0.5,0.2-0.6,0.4l0,0l-0.4,0.3l-0.1,0.1c-0.1,0.1-0.2,0.2-0.3,0.3c0,0,0,0-0.1,0l0,0
		c-0.1,0.1-0.2,0.3-0.3,0.4l0,0.1c-0.1,0.1-0.1,0.3-0.1,0.5c-0.1,0.5-0.2,1-0.2,1.5v13.3c0-0.5,0.1-1,0.2-1.5c0-0.2,0.1-0.3,0.1-0.5
		l0-0.1c0.1-0.1,0.2-0.3,0.3-0.4l0.1-0.1c0.1-0.1,0.2-0.2,0.3-0.3c0,0,0.1-0.1,0.1-0.1c0.1-0.1,0.3-0.2,0.4-0.3l0,0
		c0.2-0.1,0.4-0.3,0.6-0.4l0,0l0.7-0.3h0.1c0.2-0.1,0.5-0.2,0.7-0.3l0.1,0l0.7-0.3h0.1l1.1-0.4l0.2-0.1l0.7-0.3l0.1-0.1
		c0.2-0.1,0.4-0.2,0.6-0.3l0.1-0.1l0.5-0.3l0,0l0.2-0.1l0.3-0.2l0.2-0.2l0.1-0.1l0.1-0.1l0.1-0.1L316.4,363.6"/>
	<path class="st4" d="M392.9,353.3c-0.3,0-0.5,0-0.8,0H392l-0.7,0.1l0,0c-0.2,0-0.5,0.1-0.7,0.2l-0.2,0.1l-0.6,0.2h0
		c-0.3,0.1-0.6,0.2-0.8,0.3c-0.2,0.1-0.5,0.2-0.7,0.3l-0.2,0.1l-0.2,0.1l-0.2,0.2c-0.1,0.1-0.2,0.2-0.4,0.3l-0.3,0.2l-0.4,0.3
		l-0.4,0.4l-0.3,0.2l-0.3,0.3l-0.3,0.2l-0.1,0.1c-0.2,0.1-0.4,0.2-0.6,0.3h-0.1c-0.2,0.1-0.5,0.1-0.8,0.2c-2.1,0.2-4.2,0.3-6.3,0.3
		c-3.3,0-6.6-0.2-9.9-0.4c-1.4,0.7-2.9,1.5-4.3,2.2s-2.8,1.5-4.2,2.3c-2.1,0.3-3.2-0.2-3.2-1.1V374c0,0.9,1.1,1.4,3.2,1.1
		c2.1-1.2,4.2-2.3,6.4-3.4l2.2-1.1c3.3,0.2,6.6,0.4,9.9,0.4c2.1,0,4.2-0.1,6.3-0.3c0.3,0,0.5-0.1,0.8-0.1h0.1h0
		c0.2-0.1,0.4-0.2,0.5-0.3l0.1-0.1l0.1-0.1l0.2-0.1l0.3-0.3l0.3-0.2l0.4-0.4l0.4-0.3l0.3-0.2c0.1-0.1,0.2-0.2,0.4-0.3
		s0.2-0.2,0.4-0.2l0.2-0.1c0.2-0.1,0.5-0.2,0.7-0.3l0.8-0.3h0l0.6-0.2l0.2,0c0.2-0.1,0.5-0.1,0.7-0.2l0,0c0.2,0,0.5-0.1,0.7-0.1h0.2
		c0.3,0,0.5,0,0.8,0c2,0,4.1,0.9,6,4.3v-13.4C397.1,354.2,394.9,353.3,392.9,353.3"/>
	<path class="st2" d="M314,375.9c0-0.1,0.1-0.2,0.1-0.4v-13.3c0,0.1,0,0.2-0.1,0.4l-0.1,0.1c0,0.1-0.1,0.2-0.1,0.2
		c-0.1,0.1-0.1,0.2-0.2,0.2l0,0c-0.1,0.1-0.2,0.2-0.4,0.2l-0.2,0.1l-0.3,0.1l-0.2,0.1L312,364h-0.1l-0.7,0.2H311l-0.9,0.1
		c-1.7,0.2-3.3,0.4-5,0.4c-1.9,0.1-3.8-0.3-5.6-1.2c-3.4-1.7-3.7-5.2-6.1-7.6c-2.9-2.7-4.9-3.6-6.6-3.6c-0.3,0-0.6,0-0.9,0.1h-0.1
		c-0.3,0-0.6,0.1-0.8,0.2h-0.1l-0.2,0l-0.5,0.2l-0.3,0.1l-0.8,0.3c-0.3,0.2-0.7,0.4-1,0.6l-0.3,0.2l-0.9,0.5l-1.1,0.6l-0.2,0.1
		c-0.3,0.2-0.5,0.3-0.8,0.5l-0.2,0.1l-0.1,0.1l-0.5,0.4l-0.3,0.2c-0.2,0.2-0.3,0.3-0.5,0.5l-0.1,0.1h0c-0.1,0.1-0.1,0.3-0.1,0.4
		v13.3c0-0.2,0.1-0.3,0.1-0.4c0.1-0.1,0.1-0.1,0.2-0.2c0.2-0.2,0.3-0.3,0.5-0.5l0.3-0.2l0.5-0.4l0.3-0.2c0.3-0.2,0.5-0.3,0.8-0.5
		l0.2-0.1l1.1-0.6l0.9-0.5l0.4-0.2c0.4-0.2,0.7-0.4,1-0.6l0.8-0.3l0.3-0.1l0.6-0.2h0.1c0.3-0.1,0.5-0.2,0.8-0.2h0.1
		c0.3-0.1,0.6-0.1,0.9-0.1c1.7,0,3.8,0.8,6.6,3.6c2.5,2.4,2.8,5.9,6.1,7.6c1.7,0.8,3.7,1.2,5.6,1.2c1.7,0,3.3-0.2,5-0.4
		c0.3,0,0.6-0.1,0.9-0.1h0.2c0.2,0,0.5-0.1,0.7-0.2h0.1l0.2-0.1c0.1,0,0.1,0,0.2-0.1l0.2-0.1l0.3-0.1l0.2-0.1h0.1l0.3-0.2l0,0
		c0.1,0,0.1-0.1,0.2-0.2c0,0,0,0,0-0.1c0.1-0.1,0.2-0.2,0.3-0.3V375.9"/>
	<path class="st2" d="M384.9,379.8v-13.3c0,1.7,1,3.2,2.5,4c2.4,1,4.6,2.4,6.4,4.3v13.3c-1.8-1.8-4-3.3-6.4-4.3
		C385.9,383,384.9,381.5,384.9,379.8"/>
	<path class="st2" d="M393.8,374.8v13.3l-0.1-0.1l-0.1-0.1l-0.1-0.1l-0.1-0.1c-0.1-0.1-0.2-0.2-0.2-0.2l-0.2-0.2l-0.1-0.1l-0.1-0.1
		l-0.2-0.2l-0.2-0.1l-0.1-0.1l-0.1-0.1l-0.1-0.1l-0.2-0.1l-0.1-0.1l-0.1-0.1l-0.1-0.1l-0.2-0.1l-0.1-0.1l-0.1-0.1l-0.1-0.1l-0.1-0.1
		l-0.1-0.1l-0.1-0.1l-0.1-0.1l-0.1-0.1l-0.1-0.1l-0.2-0.1l-0.1-0.1l-0.3-0.2l-0.3-0.2l-0.3-0.2c-0.6-0.4-1.3-0.7-2-1
		c-0.4-0.2-0.8-0.5-1.1-0.8v-0.1l-0.1-0.1l-0.1-0.1l-0.1-0.1l-0.1-0.2l0-0.1c-0.6-0.8-0.9-1.7-0.9-2.6V367v0.1v0.1v0.1v0.1v0.1v0.1
		v0.1v0.1v0.1v0.1v0.1v0.1v0.1v0.1v0.1v0.1v0.1v0.1v0.1v0.1v0.1l0.1,0.1l0.1,0.1v0.1v0.1l0,0.1l0,0.1l0,0.1v0.1l0.1,0.1l0.1,0.1
		l0.1,0.1l0,0l0.2,0.2l0.1,0.1l0.2,0.1c0.2,0.1,0.4,0.3,0.7,0.4l0.9,0.4l0.1,0.1l0.2,0.1l0.1,0l0.1,0l0.2,0.1l0.2,0.1l0.1,0.1
		l0.2,0.1c1.6,0.8,3,1.9,4.2,3.2"/>
	<path class="st6" d="M462.1,389v-13.1c0-2.6,0.2-5.1,0.5-7.7v13.3C462.3,384,462.1,386.5,462.1,389"/>
	<path class="st4" d="M298.3,373.4c0,0.2,0,0.4-0.1,0.6c0,0.1,0,0.1,0,0.2c0,0.1-0.1,0.3-0.1,0.4l-0.1,0.2c-0.1,0.1-0.1,0.3-0.2,0.4
		c0,0,0,0.1-0.1,0.1c-0.1,0.2-0.2,0.3-0.4,0.5l-0.1,0.1c-0.1,0.1-0.3,0.3-0.4,0.4l-0.1,0.1c-0.2,0.2-0.4,0.3-0.5,0.4H296
		c-0.2,0.2-0.5,0.3-0.8,0.5l-0.2,0.1c-0.3,0.1-0.6,0.3-0.9,0.4l-0.2,0c-0.2,0.1-0.4,0.1-0.6,0.2l-0.3,0.1c-0.2,0-0.4,0.1-0.5,0.1
		l-0.3,0.1l-0.6,0.1h-0.3c-0.3,0-0.6,0-0.9,0c-1.3,0-2.6-0.2-3.9-0.6c-2.6-0.8-4.5-1.2-7.1-2c-1.4-0.4-2.8-0.7-4.3-0.7
		c-0.3,0-0.6,0-0.9,0h-0.2c-0.2,0-0.5,0.1-0.7,0.1h-0.1l-0.4,0.1l-0.1,0c-0.3,0.1-0.6,0.2-0.9,0.4l-0.1,0.1
		c-0.2,0.1-0.5,0.3-0.7,0.5h-0.1l-0.2,0.2l-0.6,0.4l-0.7,0.5c-0.7,0.4-1.4,0.8-2.1,1.2l-0.7,0.4l-1.4,0.7c-0.3,0.1-0.5,0.2-0.8,0.4
		l-1.2,0.5l-0.8,0.3c-0.4,0.1-0.7,0.3-1.1,0.4l-1.1,0.4l-0.9,0.3c-0.4,0.1-0.8,0.2-1.2,0.3s-0.5,0.1-0.8,0.2
		c-0.4,0.1-0.9,0.1-1.3,0.2c-0.2,0-0.4,0.1-0.6,0.1c-0.7,0.1-1.3,0.1-1.9,0.1c-1.1,0-2.2-0.1-3.2-0.3c-0.2,0-0.4,0-0.6,0h-0.2
		l-0.4,0l-0.2,0l-0.3,0.1l-0.2,0.1l-0.2,0.1h-0.1c-0.2,0.1-0.5,0.2-0.7,0.3l-0.1,0.1c-0.2,0.1-0.4,0.2-0.5,0.3l-0.1,0l0,0
		c-0.2,0.1-0.4,0.3-0.6,0.5l-0.1,0.1c-0.2,0.2-0.4,0.3-0.5,0.5l0,0l0,0c-0.1,0.1-0.2,0.3-0.4,0.5l-0.1,0.1c-0.1,0.2-0.2,0.3-0.3,0.5
		l0,0c-0.1,0.2-0.1,0.3-0.2,0.5v0.1c0,0.2-0.1,0.3-0.1,0.5c0,0.2,0,0.5-0.1,0.7c0,0.1,0,0.1,0,0.2s-0.1,0.3-0.1,0.4l-0.1,0.2
		c0,0.1-0.1,0.2-0.1,0.3c0,0.1-0.1,0.1-0.1,0.2c-0.1,0.1-0.1,0.2-0.2,0.2l-0.1,0.1c-0.1,0.1-0.2,0.2-0.3,0.2L243,390l-0.2,0.1
		l-0.3,0.1h-0.1c-0.2,0-0.3,0-0.5,0c-1.4,0-3.2-0.9-5.3-3c-3.4-3.4-3.5-6-4.8-10.5c-0.9-3-6.1-8.1-9.7-8.1c-3.3,1.1-4.9,1.5-6.3,1.5
		c-3.2,0-4.9-1.9-6.4-3.8c-1.9-2.3-2.8-5.3-2.7-8.3v13.3c-0.1,3,0.8,5.9,2.7,8.3c1.6,1.9,3.3,3.8,6.4,3.8c1.4,0,3.1-0.4,6.3-1.5
		c3.6,0,8.8,5.1,9.7,8.1c1.3,4.5,1.4,7.1,4.8,10.5c2.1,2.1,3.9,3,5.3,3c0.2,0,0.3,0,0.5,0h0.1l0.2,0h0.1l0.2-0.1l0.1-0.1h0.1
		c0.1-0.1,0.2-0.2,0.3-0.2c0,0,0.1-0.1,0.1-0.1l0,0c0.1-0.1,0.1-0.2,0.2-0.3c0.1-0.1,0.1-0.1,0.1-0.2c0.1-0.1,0.1-0.2,0.1-0.3
		l0.1-0.2c0-0.1,0.1-0.3,0.1-0.4s0-0.1,0-0.2c0-0.2,0.1-0.5,0.1-0.7c0-0.2,0-0.3,0.1-0.5v-0.1c0.1-0.2,0.1-0.3,0.2-0.5l0,0
		c0.1-0.2,0.2-0.3,0.3-0.5l0.1-0.1c0.1-0.2,0.2-0.3,0.4-0.5l0,0c0.2-0.2,0.3-0.4,0.5-0.5c0,0,0.1-0.1,0.1-0.1
		c0.2-0.2,0.4-0.3,0.6-0.5l0.1-0.1c0.2-0.1,0.4-0.2,0.5-0.3l0.1-0.1c0.2-0.1,0.4-0.2,0.7-0.3l0.3-0.1l0.2-0.1l0.3-0.1l0.2,0h0.4h0.2
		h0.6c1.1,0.2,2.2,0.3,3.2,0.3c0.7,0,1.3,0,1.9-0.1l0.6-0.1c0.4-0.1,0.9-0.1,1.3-0.2l0.8-0.2c0.4-0.1,0.8-0.2,1.2-0.3l0.9-0.3
		l1.1-0.4h0.1l1-0.4l0.8-0.3c0.4-0.2,0.8-0.4,1.2-0.5l0.8-0.4l1.4-0.7l0.7-0.4c0.7-0.4,1.4-0.8,2.1-1.2c0.3-0.1,0.5-0.3,0.7-0.5l0,0
		l0.5-0.4l0.3-0.2c0.2-0.2,0.5-0.3,0.7-0.5l0.1-0.1c0.3-0.2,0.6-0.3,0.9-0.4c0.2-0.1,0.3-0.1,0.5-0.2h0.1c0.2-0.1,0.5-0.1,0.7-0.1
		h0.2c0.3,0,0.6,0,0.9,0c1.5,0,2.9,0.3,4.3,0.7c2.6,0.7,4.5,1.2,7.1,2c1.3,0.4,2.5,0.6,3.9,0.6c0.3,0,0.6,0,0.9,0h0.3l0.6-0.1h0.3
		l0.5-0.1l0.3-0.1l0.6-0.2l0.1,0l0,0c0.3-0.1,0.6-0.2,0.9-0.4l0.2-0.1c0.3-0.1,0.5-0.3,0.8-0.5l0,0h0c0.2-0.1,0.4-0.3,0.5-0.4
		l0.1-0.1l0.4-0.4l0.1-0.1l0,0c0.1-0.2,0.3-0.3,0.4-0.5c0,0,0.1-0.1,0.1-0.1c0.1-0.1,0.2-0.3,0.2-0.4c0-0.1,0.1-0.1,0.1-0.2
		c0.1-0.1,0.1-0.3,0.1-0.4c0-0.1,0-0.1,0-0.2c0-0.2,0.1-0.4,0.1-0.6c0-0.1,0-0.1,0-0.2v-13.9c0,0.1,0,0.1,0,0.2"/>
	<path class="st4" d="M466.5,390.8v0.1c0,0.1,0,0.2-0.1,0.2c0,0,0,0.1-0.1,0.1c0,0.1-0.1,0.1-0.1,0.2l-0.1,0.1l-0.1,0.2l-0.1,0.1
		l-0.2,0.2l-0.1,0.1l-0.3,0.2l-0.1,0.1c-0.2,0.1-0.4,0.3-0.7,0.4l-0.1,0c-0.3,0.1-0.5,0.2-0.8,0.3l-0.2,0.1
		c-0.2,0.1-0.4,0.1-0.6,0.2h-0.1c-0.2,0.1-0.5,0.1-0.7,0.2l-0.2,0l-0.6,0.1L461,394l-0.7,0.1h-0.1l-0.9,0.1H459l-0.7,0.1H458
		l-0.9,0.1H457l-1,0.1h-0.3l-0.8,0h-0.3l-1,0h-0.1l-1.1,0H452h-0.9h-0.4h-1.1h-4c-2.1,0-4.2,0-6.3,0s-4.1,0-6,0h-2.6h-0.9h-0.2h-1
		h-0.3h-0.8h-0.3h-0.7h-0.2l-0.9,0.1h-0.2l-0.6,0.1h-0.3l-0.5,0.1h-0.2l-0.7,0.1h-0.1l-0.5,0.1h-0.2l-0.4,0.1l-0.2,0h-0.1l-0.2,0.1
		l-0.2,0.1l-0.3,0.1l-0.1,0.1l0,0l-0.1,0.1l-0.2,0.2l0,0c-0.1,0.1-0.1,0.1-0.1,0.2c-0.1,0.1-0.2,0.3-0.3,0.4l-0.1,0.1
		c-0.1,0.1-0.2,0.2-0.4,0.3l-0.1,0.1l-0.3,0.2l-0.3,0.2c-0.1,0.1-0.2,0.1-0.4,0.1l-0.4,0.2l-0.4,0.1l-0.3,0.1l-0.5,0.1l-0.3,0.1
		l-0.6,0.1h-0.3c-0.3,0-0.6,0-0.9,0c-2,0-4-0.7-4.5-2.4c-1-3.3-3.8-5.3-6.8-6.9c-3.8-1.6-7.3-3.8-10.5-6.4c-1.5-1.5-2.5-3.2-2.5-4.7
		V391c0,1.4,1,3.1,2.5,4.7c3.1,2.8,6.5,5.2,10.3,7.1c3,1.6,5.8,3.7,6.8,6.9c0.5,1.7,2.4,2.4,4.5,2.4c0.3,0,0.6,0,0.9,0h0.3
		c0.2,0,0.4,0,0.6-0.1l0.3-0.1l0.5-0.1l0.3-0.1l0.4-0.1h0c0.1,0,0.3-0.1,0.4-0.1l0.3-0.1c0.1-0.1,0.2-0.1,0.3-0.2l0.3-0.1l0,0
		l0.1-0.1c0.1-0.1,0.3-0.2,0.4-0.3l0.1-0.1c0,0,0,0,0,0c0.1-0.1,0.2-0.2,0.2-0.4c0-0.1,0.1-0.2,0.2-0.2c0.1-0.1,0.1-0.1,0.2-0.2
		c0,0,0.1,0,0.1-0.1l0.1-0.1l0.2-0.1l0.2-0.1l0.3-0.1l0.2,0l0.4-0.1h0.2l0.5-0.1h0.1l0.7-0.1h0.2l0.5-0.1h0.3l0.6-0.1h0.2l0.9-0.1
		h0.2h0.7h0.3h0.7h0.3h1h3.7c1.9,0,4,0,6,0s4.2,0,6.3,0h2.8h1.2l0,0h1.1h0.4h0.9h0.3l1.1,0h0.1l1-0.1h0.3h0.8h0.3l1-0.1h0.1l0.9-0.1
		h0.3l0.7-0.1h0.3l0.9-0.1h0.1l0.7-0.1l0.2,0l0.6-0.1h0.2l0.7-0.2h0.1l0.6-0.2h0.1h0.1c0.3-0.1,0.5-0.2,0.8-0.3l0.1,0
		c0.2-0.1,0.5-0.2,0.7-0.4l0,0l0.1-0.1c0.1-0.1,0.2-0.1,0.3-0.2l0.1-0.1c0.1-0.1,0.1-0.1,0.2-0.2l0.1-0.1c0,0,0,0,0-0.1
		c0-0.1,0.1-0.1,0.1-0.2l0.1-0.1c0-0.1,0.1-0.1,0.1-0.2c0,0,0-0.1,0.1-0.1c0-0.1,0.1-0.2,0.1-0.2v-0.1c0-0.1,0-0.3,0-0.4v-14.1
		c0,0.1,0,0.3,0,0.4"/>
	<path class="st7" d="M307.2,317c2.8,0.2,5.7,0.1,8.5-0.2c4.9-0.7,4.2,5.6,7.9,5.9c3.5,0.3,7-1.7,9.4-3.8c7.1,0.1,14.1,0.2,21.2,0.3
		c0.2,2.7,0.4,5.5,0.6,8.2h4.1c5.2-0.9,3.4,3.9,2.9,6.2c-0.7,2.8-2.9,5-5.7,5.9c-7.6,2.2-4.9,6.7-1.4,7.9c4.3,1.5,8.6,2.5,5.8,7.4
		c-1,1.7-3.3,3.3-4.5,5s1.2,2.9,2.9,1.9c2.8-1.6,5.7-3,8.5-4.5c5.4,0.5,10.8,0.6,16.2,0.2c2.4-0.2,2.8-2.4,5.1-3.2s6.7-2.8,10.1,3.3
		l0,0c2.6,0.4,5.2,0.5,7.8,0.2c5.9-0.4,8.3,3.6,7.3,7.5s6,4.1,8.5,3s4.9-4.2,2.5-5.7c-5.7-3.6-5.1-8.6,4.2-8.1
		c3.1,0.1,8.9-3.3,10.8-4.1s4.4-1,4.4-3s-2.6-2.2-5.8-2.7c-7.1-1.1-7.8-12.8-7.4-16.5c0.3-3,1.2-3.7,2-5.2c1.4-3.2,2.6-6.6,3.5-10
		c1-3.3,6-4.3,6.7-4.4c0.1-5.8,0.1-11.6,0.2-17.3l-1.2-2l-0.6-0.7c0,0-2.8-5-12.6-4.9s-54.3-0.1-56.3,0c-11.1,0.2-16-11.1-30.2-5.9
		l0,0l0,0c-3.5,2.7-3.9,6-5.3,11.8s-8,5.9-11.5,8.7C321.1,301.9,316.7,313.2,307.2,317"/>
	<path class="st7" d="M399,357.6c-4.3,1.3-5.6,4.6-9.6,5c-6.2,0.6-5.2,6.5-2,7.9c2.4,1,4.6,2.4,6.4,4.3c-4.8,0.7-3.9,4.5-0.8,7.6
		c3.1,2.8,6.5,5.2,10.3,7.1c3,1.6,5.8,3.7,6.8,6.9c1.1,3.7,8.9,2.5,10,0.2c2.5-5,56.2,3.6,44.9-9.4c-0.9-1.2-1.7-2.4-2.4-3.8
		c-0.6-5.1-0.6-10.3,0.1-15.4c-2.8-2.8-6.8-6.4-6.1-12.4l0.2,0.1l-0.1-0.1c0,0-0.4-4.4-0.6-9.4s-1.2-15.7-11.3-21.7
		c-0.9-0.5-1.2-0.9-1.2-1.4l-0.2-14.8h0.2h-0.1c0,0-5.8,0.8-6.8,4.4c-0.9,3.4-2.1,6.8-3.5,10c-0.8,1.5-1.7,2.2-2,5.2
		c-0.4,3.7,0.3,15.4,7.4,16.5c3.2,0.5,5.7,0.8,5.8,2.7s-2.4,2.2-4.4,3s-7.7,4.2-10.8,4.1c-9.3-0.4-9.9,4.5-4.2,8.1
		c2.4,1.5,0.1,4.6-2.5,5.7s-9.6,0.8-8.5-3s-1.4-7.8-7.3-7.5C404.2,358.2,401.6,358.1,399,357.6"/>
	<path class="st8" d="M399,357.6c-4.3,1.3-5.6,4.6-9.6,5c-6.2,0.6-5.2,6.5-2,7.9c2.4,1,4.6,2.4,6.4,4.3c-4.8,0.7-3.9,4.5-0.8,7.6
		c3.1,2.8,6.5,5.2,10.3,7.1c3,1.6,5.8,3.7,6.8,6.9c1.1,3.7,8.9,2.5,10,0.2c2.5-5,56.2,3.6,44.9-9.4c-0.9-1.2-1.7-2.4-2.4-3.8
		c-0.6-5.1-0.6-10.3,0.1-15.4c-2.8-2.8-6.8-6.4-6.1-12.4l0.2,0.1l-0.1-0.1c0,0-0.4-4.4-0.6-9.4s-1.2-15.7-11.3-21.7
		c-0.9-0.5-1.2-0.9-1.2-1.4l-0.2-14.8h0.2h-0.1c0,0-5.8,0.8-6.8,4.4c-0.9,3.4-2.1,6.8-3.5,10c-0.8,1.5-1.7,2.2-2,5.2
		c-0.4,3.7,0.3,15.4,7.4,16.5c3.2,0.5,5.7,0.8,5.8,2.7s-2.4,2.2-4.4,3s-7.7,4.2-10.8,4.1c-9.3-0.4-9.9,4.5-4.2,8.1
		c2.4,1.5,0.1,4.6-2.5,5.7s-9.6,0.8-8.5-3s-1.4-7.8-7.3-7.5C404.2,358.1,401.6,358,399,357.6z"/>
	<path class="st9" d="M456.9,355.8c2.5,0.6,5.1,0.4,7.5-0.7c2.7-1.2,4.4-3,5-5.2c1.2-4.7,0.2-9.4,0.2-14.2c3-1.2,5.8-2.6,8.6-4.2
		c6.9-3.8,2.3-7.3-1.5-8c-9.2-1.8-1.1-9.2,5.7-6.1c4.2,1.9,2.9,6.7,7.5,8.2c11.9,4,23.9-4.4,15.8-12.7c-1.5-1.5-2-3.7-5-4.4
		c-3.3-0.8-7.2-0.5-9.5-2.4c-1.9-1.6-3-3.2-0.2-6.1l9-5.2c5.5,0.2,10.1,0,13.5-2.2c3.2-2,4.2-4.1,3.2-8.4c2.9,0.6,5.9,0.8,8.9,0.4
		c2.6,0.9,5.6,2.5,5.7,4.5c0.3,6.1,6.7,5.9,10.7,4.6c5.8-1.9,10.4-5.8,14.5-9.5c1.9-1.5,3-3.7,3.3-6.1c0.1-3.5,0.4-8.6-3.3-10.9
		s-6.8-2.9-8.9-5.7c-3.2-4.1-5.2-11.9,4.5-21.7H552c-1.4-3.1-4.5-5-7.9-5l0,0c-2.6,2.6-6.2,4.1-9.9,4.2c0.4,7.1-3.4,9.3-8.4,12.2
		c-5.7,3.3-5.2,12.2-5.2,12.2c-19.6-0.8-26.2,9.5-29.4,14.8l-10,0.1c-1.5,1.4-2.7,3.2-3.3,5.2c-0.9,3.3,2.5,6.9,2.5,6.9
		c-6.5,2-18,5.5-17.9,11.4c0.1,4.5-0.9,5.1-4,6.4s-14.7,0.1-14.7,0.1l0.2,14.8c0,0.4,0.4,0.9,1.2,1.4c10.1,6,11.1,16.7,11.3,21.6
		s0.6,9.4,0.6,9.4L456.9,355.8z"/>
	<path class="st10" d="M433.4,178.5L433.4,178.5c-4.8-0.6-11.4-0.3-14.5-3.5c-2.5-2.6-6.6-3.7-12.6-0.9c-4,1.9-8.3,3.2-12.7,3.9
		c-8.1,1-20-3.3-25.8,7.4h-9.1c-9.6-5.6-16.8-5.6-25.2-5.6h0.1c-1.3,1.7-2.7,3.2-4.2,4.7c0.9,2.9-2.8,4.9,3.9,7.1s3.1,8.2,3.1,8.2
		l-0.4,0.1h20h0.1l0,0.1c1,0.5,8,3.7,14,4.3c6.5,0.6,18.9,1.1,28.5,3.3s13.2,2.2,16.2,2.2c3.2-5.4,7-10.5,11.4-15
		C430.8,189.7,434.3,184.8,433.4,178.5"/>
	<path class="st7" d="M207.4,351.5c-1,4.5-1.8,10.5,1.9,14.8c2.3,2.7,4.8,5.5,11.5,2.5c3.5-1.5,10,4.5,11,7.9
		c1.3,4.5,1.4,7.2,4.8,10.5c4.4,4.4,7.6,3.7,7.9-0.2c0.1-2.1,3.2-5,6.1-4.5c6.1,1,12.1-0.9,19.1-5.1c2.6-1.5,3.7-3.5,10-1.7
		c2.6,0.7,4.5,1.2,7.1,2c6.4,1.9,11.6-1.1,11.7-4.5c0.2-4.6-6.5-8.2-10.9-10.9c-2.5-1.5-6.5-1.9-9.3-3.1c-0.8-0.4-1.6-1.3-1.1-1.9
		c1.4-1.7,4.1-2.7,6.1-4c2.6-1.1,5.1-2.5,10.3,2.5c2.5,2.3,2.8,5.9,6.1,7.6c3.1,1.6,6.8,1.2,10.6,0.8c5.5-0.7,4.5-3.6,1.4-3.7
		c-4.9-0.2-4.5-2.8-4.2-4.5s3.3-2.7,5.6-3.5c6.2-2.1,3.3-5.3,0.9-7c-1.7-1.2-3.4-1.8-3.9-3.4c-1.3-3.5,1.1-7.4-0.1-11
		c-1-3.1-5.8-5.3-6.4-8.5c-0.4-2-1.7-5.9,3.2-5.8h0.6c9.5-3.7,14-15,18.9-18.9c3.5-2.8,10-2.9,11.5-8.7s1.8-9.1,5.3-11.8
		c-7-6.7-20.8-10.6-21.7-10.9l-0.1,0.1c-6.7-2-6.7-1.2-14.9-1.7h-0.1c-4.7,3.9-9.8,7.4-15,10.6c-7.6,4.4-3.4,3.8-9.9,8.6
		s-13.9,12.6-19.6,16.3s-12.3,6.4-18,3.1s-11.9,1.6-13.6,5.5s-5.9,14.5-5.1,19s-2.6,10.8-9.7,12c0.1,4.9,0.7,10-7.6,11.3
		L207.4,351.5z M305.9,265l0.3,0.1L305.9,265z"/>
	<path class="st8" d="M207.4,351.5c-1,4.5-1.8,10.5,1.9,14.8c2.3,2.7,4.8,5.5,11.5,2.5c3.5-1.5,10,4.5,11,7.9
		c1.3,4.5,1.4,7.2,4.8,10.5c4.4,4.4,7.6,3.7,7.9-0.2c0.1-2.1,3.2-5,6.1-4.5c6.1,1,12.1-0.9,19.1-5.1c2.6-1.5,3.7-3.5,10-1.7
		c2.6,0.7,4.5,1.2,7.1,2c6.4,1.9,11.6-1.1,11.7-4.5c0.2-4.6-6.5-8.2-10.9-10.9c-2.5-1.5-6.5-1.9-9.3-3.1c-0.8-0.4-1.6-1.3-1.1-1.9
		c1.4-1.7,4.1-2.7,6.1-4c2.6-1.1,5.1-2.5,10.3,2.5c2.5,2.3,2.8,5.9,6.1,7.6c3.1,1.6,6.8,1.2,10.6,0.8c5.5-0.7,4.5-3.6,1.4-3.7
		c-4.9-0.2-4.5-2.8-4.2-4.5s3.3-2.7,5.6-3.5c6.2-2.1,3.3-5.3,0.9-7c-1.7-1.2-3.4-1.8-3.9-3.4c-1.3-3.5,1.1-7.4-0.1-11
		c-1-3.1-5.8-5.3-6.4-8.5c-0.4-2-1.7-5.9,3.2-5.8h0.6c9.5-3.7,14-15,18.9-18.9c3.5-2.8,10-2.9,11.5-8.7s1.8-9.1,5.3-11.8
		c-7-6.7-20.8-10.6-21.7-10.9l-0.1,0.1c-6.7-2-6.7-1.2-14.9-1.7h-0.1c-4.7,3.9-9.8,7.4-15,10.6c-7.6,4.4-3.4,3.8-9.9,8.6
		s-13.9,12.6-19.6,16.3s-12.3,6.4-18,3.1s-11.9,1.6-13.6,5.5s-5.9,14.5-5.1,19s-2.6,10.8-9.7,12c0.1,4.9,0.7,10-7.6,11.3
		L207.4,351.5z M305.9,265l0.3,0.1L305.9,265z"/>
	<path class="st11" d="M169.3,282.2c-0.1,3.4,0.1,7.4-4.1,10.1c-7.7,5-11.6,10.7-12.3,17c-0.8,7,5.3,13.5,7.9,20.2
		c1.4,3.8,6.9,4.2,8.4,1.3c2.1-3.9,6.1-4.4,10-4.6c3.4-0.2,7.7,1.4,8.9,3.6c2.9,5.2,7.9,3.4,13.2-1.5c1.5-1.4,7.1-1.5,9-0.4
		c2.8,1.5,2.8,6.5-0.7,6.8c-8.6,1-11.2,3.9-14.5,7c-6.9,6.5-6.9,8.2-2.8,7.5c2.4-0.4,3.8,1.8,7.1,1c2.5-0.6,5.2,0.8,7.8,1.2v0.1h0.2
		c8.4-1.4,7.7-6.5,7.6-11.4c7.1-1.1,10.5-7.4,9.7-11.9s3.4-15.1,5.1-19s7.8-8.9,13.6-5.5s12.3,0.5,18-3.1
		c5.7-3.6,13.1-11.5,19.6-16.3s2.3-4.2,9.9-8.6c5.3-3.2,10.3-6.7,15.1-10.6c-3.3-1.1-6.5-2.5-9.6-4.2c-4.6-2.6-7.3-3.1-19.6-3.8
		s-17.6-3.6-27.9-5.6c-8.5-1.7-16-8.6-18.3-10.9c-0.5,2.5-2.5,3.5-5.2,5.3c-1.9,1.4-8.7,4.3-12.2,7.7c-2.2,2.3-5.2,3.9-8.4,4.3
		C196.4,259.6,171.7,278.9,169.3,282.2"/>
	<path class="st8" d="M169.3,282.2c-0.1,3.4,0.1,7.4-4.1,10.1c-7.7,5-11.6,10.7-12.3,17c-0.8,7,5.3,13.5,7.9,20.2
		c1.4,3.8,6.9,4.2,8.4,1.3c2.1-3.9,6.1-4.4,10-4.6c3.4-0.2,7.7,1.4,8.9,3.6c2.9,5.2,7.9,3.4,13.2-1.5c1.5-1.4,7.1-1.5,9-0.4
		c2.8,1.5,2.8,6.5-0.7,6.8c-8.6,1-11.2,3.9-14.5,7c-6.9,6.5-6.9,8.2-2.8,7.5c2.4-0.4,3.8,1.8,7.1,1c2.5-0.6,5.2,0.8,7.8,1.2v0.1h0.2
		c8.4-1.4,7.7-6.5,7.6-11.4c7.1-1.1,10.5-7.4,9.7-11.9s3.4-15.1,5.1-19s7.8-8.9,13.6-5.5s12.3,0.5,18-3.1
		c5.7-3.6,13.1-11.5,19.6-16.3s2.3-4.2,9.9-8.6c5.3-3.2,10.3-6.7,15.1-10.6c-3.3-1.1-6.5-2.5-9.6-4.2c-4.6-2.6-7.3-3.1-19.6-3.8
		s-17.6-3.6-27.9-5.6c-8.5-1.7-16-8.6-18.3-10.9c-0.5,2.5-2.5,3.5-5.2,5.3c-1.9,1.4-8.7,4.3-12.2,7.7c-2.2,2.3-5.2,3.9-8.4,4.3
		C196.4,259.6,171.6,278.9,169.3,282.2z"/>
	<path class="st11" d="M27.4,226.3c0.8,6.8,0.6,13.8,2.3,20.5c1.5,5.6,5.1,13.6,13.4,14.5c7.1,0.8,15.8,0.7,23.2,1.9
		c2.8,0.4,4.4,1.9,6.9,2.9c-0.4,5.3-0.4,10.7-0.1,16c3.8,1.4,5,3.5,8.1,5.2c-3.1,12.2,10.5,10.2,14.8,7.4c3.1-2,8.3-2.2,12.1-1.2
		c2.9,0.7,4.8,2.1,5,5.5c0.1,2.5,2.6,4.7,6.1,6.1c-0.6,2.2,1.7,4.9,0.8,7s-4.3,3.4-5,5.6c-1.1,3.8,5.6,3.9,6.9,2.8
		c1.1-0.9,1.8-2.1,2-3.5c0.1-1.3,1.6-1.5,3.3-0.5c1.4,0.8,3.9,0.4,5.3-0.4c4.4-2.6,5.5-8.5,11-9.6c7.4-1.5,5-6,0.5-6.2
		c-2.5-0.1-5.7-1-7.1-2.5c0.2-1.1,0.1-3.7,0.3-4.6c5.4,0.1,8.3,0.5,11.9-0.3c4-0.9,7.2-3,10.6-4.7s6.4-3.9,9.6-5.9v0.1
		c2.4-3.3,27.1-22.6,35.7-24.2c3.2-0.5,6.2-2,8.5-4.4c3.5-3.5,10.2-6.4,12.2-7.7c3.3-2.3,5.7-3.2,5.2-7.5c-1.4-12.6-17.7-28-19-29.2
		C149.4,215.3,88.8,220.7,27.4,226.3"/>
	<path class="st8" d="M27.4,226.3c0.8,6.8,0.6,13.8,2.3,20.5c1.5,5.6,5.1,13.6,13.4,14.5c7.1,0.8,15.8,0.7,23.2,1.9
		c2.8,0.4,4.4,1.9,6.9,2.9c-0.4,5.3-0.4,10.7-0.1,16c3.8,1.4,5,3.5,8.1,5.2c-3.1,12.2,10.5,10.2,14.8,7.4c3.1-2,8.3-2.2,12.1-1.2
		c2.9,0.7,4.8,2.1,5,5.5c0.1,2.5,2.6,4.7,6.1,6.1c-0.6,2.2,1.7,4.9,0.8,7s-4.3,3.4-5,5.6c-1.1,3.8,5.6,3.9,6.9,2.8
		c1.1-0.9,1.8-2.1,2-3.5c0.1-1.3,1.6-1.5,3.3-0.5c1.4,0.8,3.9,0.4,5.3-0.4c4.4-2.6,5.5-8.5,11-9.6c7.4-1.5,5-6,0.5-6.2
		c-2.5-0.1-5.7-1-7.1-2.5c0.2-1.1,0.1-3.7,0.3-4.6c5.4,0.1,8.3,0.5,11.9-0.3c4-0.9,7.2-3,10.6-4.7s6.4-3.9,9.6-5.9v0.1
		c2.4-3.3,27.1-22.6,35.7-24.2c3.2-0.5,6.2-2,8.5-4.4c3.5-3.5,10.2-6.4,12.2-7.7c3.3-2.3,5.7-3.2,5.2-7.5c-1.4-12.6-17.7-28-19-29.2
		C149.4,215.3,88.9,220.6,27.4,226.3z"/>
	<path class="st11" d="M241.9,175.3c-8.1-0.9-13.1,2.2-19.3-3l-0.5-0.4c-2.9,2.1-6.3,4.2-8.6,5.8c-5.7,4-8.3,10.1-6.5,15.6
		s3.2,9.3,5,15.6l0.1,0.1c0,0,6.5-0.2,11.3-3.1s9.8-2.5,14.7-2.6s30.7,0.5,33.6-0.3s6-1.5,9-3s5.4-0.8,7.1,1.4s6.7,5.4,9.9-0.9v-0.7
		l38.2,0.1l0.4-0.1c0,0,3.6-6-3.1-8.2s-3-4.3-3.9-7.1c1.5-1.5,2.9-3.1,4.2-4.7h-0.1c2.4-4.8-0.3-4.9-3.4-3.7c-3,1-5.9,2.4-8.5,4.2
		c-2,1.3-4.2,2.1-6.6,2.3c-3.7,0.5-8.3,0.2-12.1,0.2c-3.7,1.4-7.2,2.5-11.3,1.2c-3.6-1.2-6-4.3-9.6-5.4c-2.3-0.7-7.3-0.7-9,0.7
		c-2.8,2.2-1.8,3.3-7.5,2.9c-1-0.1-2.1-1.3-3.1-1.4c-3.1-0.2-7.5,0.3-10.1,0.1C250,177.1,246.2,175.8,241.9,175.3"/>
	<path class="st8" d="M241.9,175.3c-8.1-0.9-13.1,2.2-19.3-3l-0.5-0.4c-2.9,2.1-6.3,4.2-8.6,5.8c-5.7,4-8.3,10.1-6.5,15.6
		s3.2,9.3,5,15.6l0.1,0.1c0,0,6.5-0.2,11.3-3.1s9.8-2.5,14.7-2.6s30.7,0.5,33.6-0.3s6-1.5,9-3s5.4-0.8,7.1,1.4s6.7,5.4,9.9-0.9v-0.7
		l38.2,0.1l0.4-0.1c0,0,3.6-6-3.1-8.2s-3-4.3-3.9-7.1c1.5-1.5,2.9-3.1,4.2-4.7h-0.1c2.4-4.8-0.3-4.9-3.4-3.7c-3,1-5.9,2.4-8.5,4.2
		c-2,1.3-4.2,2.1-6.6,2.3c-3.7,0.5-8.3,0.2-12.1,0.2c-3.7,1.4-7.2,2.5-11.3,1.2c-3.6-1.2-6-4.3-9.6-5.4c-2.3-0.7-7.3-0.7-9,0.7
		c-2.8,2.2-1.8,3.3-7.5,2.9c-1-0.1-2.1-1.3-3.1-1.4c-3.1-0.2-7.5,0.3-10.1,0.1C249.9,177.1,246.2,175.8,241.9,175.3z"/>
	<path class="st11" d="M222.1,171.9c-5.8-5.1-8.2-12.1-19.4-11.8c-11.5,0.4-13.8-1.1-17-0.1s-4.8,3.8-4.5,4.6
		c-2.4-0.1-4.8,0-7.2,0.3c-1.2-0.9-4.2-3.3-6.6-5c-2.5-2.1-7.5-1.7-8,1.6s-3.1,5.5-6.7,8.2c-5.4,1.2-41.2,0.6-41.2,0.6
		c-2.5-2.6-5.1-5.1-7.9-7.4c-4.4-3.9-8.6-1.1-8.8,2.6s0,7-0.5,10.7c-2.3,1.9-7.2-0.2-10.5-2.7c-2.9-2.2-9.7-2.4-13,1.4
		c-2.1,2.4-3.1,5-5.3,7.6c-8.3,1-18-2.6-27.5,4.8c-4.2,3.3-6,8.9-9.7,12.5c-5.2,5.2-15.6,1.9-21,5.4c-6,4-9.2,6.6-5.3,11.7
		c2.1,2.9,3.3,5.9,5.3,8.8c1.2,1.9,1.8,1.6,4.6,1.5l15.6-0.9l0,0c61.5-5.6,122.1-11,184.6-17.1c-1.8-6.4-3.1-10.1-5-15.8
		c-1.9-5.5,0.7-11.6,6.5-15.6C215.8,176.1,219.2,174.1,222.1,171.9"/>
	<path class="st8" d="M222.1,171.9c-5.8-5.1-8.2-12.1-19.4-11.8c-11.5,0.4-13.8-1.1-17-0.1s-4.8,3.8-4.5,4.6c-2.4-0.1-4.8,0-7.2,0.3
		c-1.2-0.9-4.2-3.3-6.6-5c-2.5-2.1-7.5-1.7-8,1.6s-3.1,5.5-6.7,8.2c-5.4,1.2-41.2,0.6-41.2,0.6c-2.5-2.6-5.1-5.1-7.9-7.4
		c-4.4-3.9-8.6-1.1-8.8,2.6s0,7-0.5,10.7c-2.3,1.9-7.2-0.2-10.5-2.7c-2.9-2.2-9.7-2.4-13,1.4c-2.1,2.4-3.1,5-5.3,7.6
		c-8.3,1-18-2.6-27.5,4.8c-4.2,3.3-6,8.9-9.7,12.5c-5.2,5.2-15.6,1.9-21,5.4c-6,4-9.2,6.6-5.3,11.7c2.1,2.9,3.3,5.9,5.3,8.8
		c1.2,1.9,1.8,1.6,4.6,1.5l15.6-0.9l0,0c61.5-5.6,122.1-11,184.6-17.1c-1.8-6.4-3.1-10.1-5-15.8c-1.9-5.5,0.7-11.6,6.5-15.6
		C215.8,176.1,219.2,174.1,222.1,171.9z"/>
	<path class="st11" d="M297.7,199.7l58.4,0.1c0,0,7.1,7.6-1.2,15.6s-9,5.4-9.8,19.5s-23.9,31.9-23.9,31.9c-6.7-2-6.7-1.2-14.9-1.7
		h-0.1l0,0l0,0l-0.3-0.1c-3.2-1.1-6.3-2.5-9.3-4.1l-0.2-0.1l-0.2-0.1l-0.2-0.1l-0.2-0.1l-0.2-0.1l-0.2-0.1l-0.2-0.1l-0.2-0.1
		l-0.2-0.1l-0.2-0.1l-0.2-0.1l-0.2-0.1l0,0l-0.2-0.1l-0.2-0.1l-0.2-0.1l-0.2-0.1l-0.2-0.1l-0.2-0.1l-0.2-0.1l-0.2-0.1l-0.2-0.1
		l-0.2-0.1l-0.2-0.1l-0.2-0.1l-0.2-0.1l-0.2,0l-0.2-0.1l-0.2-0.1h-0.2l-0.2-0.1l-0.3,0l-0.2,0l-0.3,0h-0.3l-0.3,0l-0.3,0h-0.3H288
		h-0.3l-0.3,0h-0.3h-0.3h-0.3h-0.3h-0.4h-0.4H285h-0.4h-0.4h-0.4h-0.4H283h-0.4h-0.4h-0.5h-0.5h-0.5h-0.5h-0.5h-0.5h-0.5h-0.5h-0.5
		H277h-0.5h-0.1H276h-0.3h-0.4h-0.1h-0.4h-0.1h-0.5l0,0l-0.5,0l0,0h-0.1h-0.2h-0.2h-0.3h-0.3h-0.1h-0.1h-0.1H272h-0.1h-0.4h-0.2
		h-0.1h-0.1H271h-0.1h-0.2h-0.1h-0.1h-0.2l0,0h-0.1H270h-0.2h-0.1h-0.1h-0.1h-0.1h-0.1c3.9-3,8-5.6,12.4-8
		c8.5-4.6,18.8-10.3,17.5-21.8s-1.4-26.7-1.4-26.7"/>
	<path class="st8" d="M297.7,199.7l58.4,0.1c0,0,7.1,7.6-1.2,15.6s-9,5.4-9.8,19.5s-23.9,31.9-23.9,31.9c-6.7-2-6.7-1.2-14.9-1.7
		h-0.1l0,0l0,0l-0.3-0.1c-3.2-1.1-6.3-2.5-9.3-4.1l-0.2-0.1l-0.2-0.1l-0.2-0.1l-0.2-0.1l-0.2-0.1l-0.2-0.1l-0.2-0.1l-0.2-0.1
		l-0.2-0.1l-0.2-0.1l-0.2-0.1l-0.2-0.1l0,0l-0.2-0.1l-0.2-0.1l-0.2-0.1l-0.2-0.1l-0.2-0.1l-0.2-0.1l-0.2-0.1l-0.2-0.1l-0.2-0.1
		l-0.2-0.1l-0.2-0.1l-0.2-0.1l-0.2-0.1l-0.2,0l-0.2-0.1l-0.2-0.1h-0.2l-0.2-0.1l-0.3,0l-0.2,0l-0.3,0h-0.3l-0.3,0l-0.3,0h-0.3H288
		h-0.3l-0.3,0h-0.3h-0.3h-0.3h-0.3h-0.4h-0.4H285h-0.4h-0.4h-0.4h-0.4H283h-0.4h-0.4h-0.5h-0.5h-0.5h-0.5h-0.5h-0.5h-0.5h-0.5h-0.5
		H277h-0.5h-0.1H276h-0.3h-0.4h-0.1h-0.4h-0.1h-0.5l0,0l-0.5,0l0,0h-0.1h-0.2h-0.2h-0.3h-0.3h-0.1h-0.1h-0.1H272h-0.1h-0.4h-0.2
		h-0.1h-0.1H271h-0.1h-0.2h-0.1h-0.1h-0.2l0,0h-0.1H270h-0.2h-0.1h-0.1h-0.1h-0.1h-0.1c3.9-3,8-5.6,12.4-8
		c8.5-4.6,18.8-10.3,17.5-21.8S297.7,199.7,297.7,199.7z"/>
	<path class="st11" d="M269.2,256.2c-7.3-1.2-12.2-3.2-20.1-4.7c-8.5-1.7-16-8.6-18.3-10.9c0.1-0.7,0.1-1.4,0-2.1
		c-1.4-12.6-17.7-28-19-29.2h0.1l-0.1-0.2l0.1,0.1c0,0,6.5-0.2,11.3-3.1s9.8-2.5,14.7-2.6s30.7,0.5,33.6-0.3s6-1.5,9-3
		s5.4-0.8,7.1,1.4s6.7,5.4,9.9-0.9c0,3.1,0.2,16,1.4,26c1.4,11.5-9,17.1-17.5,21.8C277.2,250.5,273.1,253.2,269.2,256.2"/>
	<path class="st8" d="M269.2,256.2c-7.3-1.2-12.2-3.2-20.1-4.7c-8.5-1.7-16-8.6-18.3-10.9c0.1-0.7,0.1-1.4,0-2.1
		c-1.4-12.6-17.7-28-19-29.2h0.1l-0.1-0.2l0.1,0.1c0,0,6.5-0.2,11.3-3.1s9.8-2.5,14.7-2.6s30.7,0.5,33.6-0.3s6-1.5,9-3
		s5.4-0.8,7.1,1.4s6.7,5.4,9.9-0.9c0,3.1,0.2,16,1.4,26c1.4,11.5-9,17.1-17.5,21.8C277.2,250.5,273.1,253.2,269.2,256.2z"/>
	<path class="st10" d="M513.8,212.9c-11.3,0.2-22,6.3-26.9,9.9c-5.6,4-8.6,3.6-12.1,3s-8-4.8-9.5-7.1s-5.1-1.5-12.9-2.4l-0.4-0.1
		c-3,11-10.2,16.4-18.1,21c0,3.3-0.1,6.6-0.1,9.9c4.5,5.8,5,11.5,5.4,17.3c6-0.1,9.9,2.1,11.5,6.6h8.6c7.8-2.5,6.7-6.8,6.5-11.5
		c6,0.9,9.4,0.2,16.3-0.1c8-0.4,14.4-2.7,17.7-9.2c3.2-6.2,16.9-11,26.3-11.2c6-0.1,12.4,1.3,17.7-4.1l0,0h-0.2
		C543.4,228.5,533.2,214,513.8,212.9"/>
	<path class="st12" d="M513.8,212.9c-11.3,0.2-22,6.3-26.9,9.9c-5.6,4-8.6,3.6-12.1,3s-8-4.8-9.5-7.1s-5.1-1.5-12.9-2.4l-0.4-0.1
		c-3,11-10.2,16.4-18.1,21c0,3.3-0.1,6.6-0.1,9.9c4.5,5.8,5,11.5,5.4,17.3c6-0.1,9.9,2.1,11.5,6.6h8.6c7.8-2.5,6.7-6.8,6.5-11.5
		c6,0.9,9.4,0.2,16.3-0.1c8-0.4,14.4-2.7,17.7-9.2c3.2-6.2,16.9-11,26.3-11.2c6-0.1,12.4,1.3,17.7-4.1l0,0h-0.2
		C543.4,228.5,533.2,214,513.8,212.9z"/>
	<path class="st13" d="M415.6,209.8l-0.4,0.1l-0.1,10.8c0,0,7.4,5.9,5.5,12.4s-3.5,6.6-0.6,11s2.7,8.3,5.7,11.9
		c3,3.6,9.5,11.4,17.3,16l0,0c-2.5-2.4-2.9-4.9-3.9-7.5h0.1l0,0c-0.4-5.8-1-11.5-5.4-17.3c0-3.3,0.1-6.6,0.1-9.9
		c7.9-4.6,15.1-10,18.1-21c-7.6-1.1-14.9-6.6-16.7-6.6L415.6,209.8z"/>
	<path class="st8" d="M415.6,209.8l-0.4,0.1l-0.1,10.8c0,0,7.4,5.9,5.5,12.4s-3.5,6.6-0.6,11s2.7,8.3,5.7,11.9
		c3,3.6,9.5,11.4,17.3,16l0,0c-2.5-2.4-2.9-4.9-3.9-7.5h0.1l0,0c-0.4-5.8-1-11.5-5.4-17.3c0-3.3,0.1-6.6,0.1-9.9
		c7.9-4.6,15.1-10,18.1-21c-7.6-1.1-14.9-6.6-16.7-6.6L415.6,209.8z"/>
	<path class="st13" d="M346.7,223.7c5,0.4,21.5,2,29,5.4c8.4,3.7,35.9,14.5,45.1,16.6c-0.3-0.5-0.6-1.1-0.9-1.6
		c-2.9-4.3-1.2-4.6,0.6-11s-5.5-12.4-5.5-12.4l0.1-10.8l0.4-0.1h-0.8l-0.1-0.2h-3.8h-0.4h-0.4h-0.1h-0.1h-0.1h-0.4h-0.2H409h-0.1
		h-0.1h-0.1h-0.2h-0.1h-0.1H408h-0.1h-0.1h-0.1h-0.1l0,0h-0.2h-0.1h-0.1h-0.2h-0.1h-0.2h-0.1h-0.2h-0.2h0H406h-0.2h-0.3l0,0h-0.1
		h-0.2H405h-0.2h-0.1h-0.2h-0.1h-0.2H404l-0.3-0.1h-0.1l-0.3-0.1h-0.1l-0.3-0.1H403l-0.3-0.1h-0.1l-0.3-0.1h-0.1l-0.3-0.1l-0.3-0.1
		h-0.1h0l-0.3-0.1h0l-0.4-0.1h0l-0.4-0.1l0,0l-0.4-0.1l0,0l-0.4-0.1l0,0l-0.4-0.1l0,0l-0.5-0.1c-9.6-2.3-22-2.7-28.5-3.3
		c-6-0.6-13-3.8-14-4.3l0.1,0.1l0,0v0.1l0,0l0,0.1l0.1,0.1l0,0l0.1,0.1l0,0l0.1,0.1l0,0l0.1,0.1l0,0l0.1,0.1l0.1,0.1l0,0l0.1,0.1
		v0.1l0,0l0.1,0.1l0,0l0.1,0.1l0,0l0.1,0.1l0,0c0.1,0.1,0.1,0.2,0.2,0.3v0.1l0.1,0.2l0,0c0.1,0.2,0.2,0.4,0.3,0.6l0,0l0,0l0.1,0.2
		c0.1,0.1,0.1,0.3,0.2,0.4s0.1,0.3,0.2,0.5l0.1,0.2l0,0l0.1,0.2l0,0c0,0.1,0,0.2,0.1,0.2l0,0l0.1,0.2l0,0l0,0.2v0.1l0,0.2v0.1v0.2
		v0.1v0.2v0.1v0.2v0.1v0.2v0.1v0.2v1v0.2v0.1v0.2v0.1l0,0c0,0.1,0,0.2,0,0.3l-0.1,0.3l0,0v0.1c0,0.1,0,0.1,0,0.2v0.1l0,0.2v0.1
		c0,0.1,0,0.1-0.1,0.2v0.1l-0.1,0.2l0,0.1l-0.1,0.2l-0.1,0.2l-0.1,0.2l-0.1,0.2l-0.1,0.2l-0.1,0.2l-0.1,0.2l-0.1,0.2l-0.1,0.2
		l-0.1,0.1l-0.1,0.2l-0.1,0.2l-0.1,0.2l-0.1,0.2l-0.1,0.2l-0.1,0.2l-0.1,0.2l-0.1,0.1l-0.2,0.2l-0.1,0.1c-0.1,0.1-0.1,0.1-0.2,0.2
		l-0.1,0.1l-0.2,0.3l-0.1,0.1c-0.1,0.1-0.2,0.2-0.3,0.3l-0.1,0.1c-0.1,0.1-0.2,0.3-0.4,0.4l-0.4,0.4l0,0l0,0l-0.2,0.2l-0.1,0.1
		l-0.1,0.1l-0.2,0.2l-0.1,0.1l0,0l-0.3,0.3l0,0l-0.2,0.1l-0.2,0.2l0,0l0,0l-0.3,0.3l0,0l0,0l-0.3,0.2l0,0l-0.1,0.1
		c-0.3,0.3-0.6,0.5-0.8,0.7l0,0l-0.2,0.1l-0.6,0.5l0,0l-0.1,0.1c-0.8,0.7-1.4,1.2-2,1.8l-0.1,0.1c-0.3,0.3-0.6,0.7-0.9,1l0,0
		c-0.1,0.2-0.2,0.3-0.4,0.5l-0.1,0.1l-0.1,0.1l-0.1,0.1l-0.1,0.1l0,0l-0.1,0.2l0,0l-0.1,0.2L346.7,223.7z"/>
	<path class="st8" d="M346.7,223.7c5,0.4,21.5,2,29,5.4c8.4,3.7,35.9,14.5,45.1,16.6c-0.3-0.5-0.6-1.1-0.9-1.6
		c-2.9-4.3-1.2-4.6,0.6-11s-5.5-12.4-5.5-12.4l0.1-10.8l0.4-0.1h-0.8l-0.1-0.2h-3.8h-0.4h-0.4h-0.1h-0.1h-0.1h-0.4h-0.2H409h-0.1
		h-0.1h-0.1h-0.2h-0.1h-0.1H408h-0.1h-0.1h-0.1h-0.1l0,0h-0.2h-0.1h-0.1h-0.2h-0.1h-0.2h-0.1h-0.2h-0.2h0H406h-0.2h-0.3l0,0h-0.1
		h-0.2H405h-0.2h-0.1h-0.2h-0.1h-0.2H404l-0.3-0.1h-0.1l-0.3-0.1h-0.1l-0.3-0.1H403l-0.3-0.1h-0.1l-0.3-0.1h-0.1l-0.3-0.1l-0.3-0.1
		h-0.1h0l-0.3-0.1h0l-0.4-0.1h0l-0.4-0.1l0,0l-0.4-0.1l0,0l-0.4-0.1l0,0l-0.4-0.1l0,0l-0.5-0.1c-9.6-2.3-22-2.7-28.5-3.3
		c-6-0.6-13-3.8-14-4.3l0.1,0.1l0,0v0.1l0,0l0,0.1l0.1,0.1l0,0l0.1,0.1l0,0l0.1,0.1l0,0l0.1,0.1l0,0l0.1,0.1l0.1,0.1l0,0l0.1,0.1
		v0.1l0,0l0.1,0.1l0,0l0.1,0.1l0,0l0.1,0.1l0,0c0.1,0.1,0.1,0.2,0.2,0.3v0.1l0.1,0.2l0,0c0.1,0.2,0.2,0.4,0.3,0.6l0,0l0,0l0.1,0.2
		c0.1,0.1,0.1,0.3,0.2,0.4s0.1,0.3,0.2,0.5l0.1,0.2l0,0l0.1,0.2l0,0c0,0.1,0,0.2,0.1,0.2l0,0l0.1,0.2l0,0l0,0.2v0.1l0,0.2v0.1v0.2
		v0.1v0.2v0.1v0.2v0.1v0.2v0.1v0.2v1v0.2v0.1v0.2v0.1l0,0c0,0.1,0,0.2,0,0.3l-0.1,0.3l0,0v0.1c0,0.1,0,0.1,0,0.2v0.1l0,0.2v0.1
		c0,0.1,0,0.1-0.1,0.2v0.1l-0.1,0.2l0,0.1l-0.1,0.2l-0.1,0.2l-0.1,0.2l-0.1,0.2l-0.1,0.2l-0.1,0.2l-0.1,0.2l-0.1,0.2l-0.1,0.2
		l-0.1,0.1l-0.1,0.2l-0.1,0.2l-0.1,0.2l-0.1,0.2l-0.1,0.2l-0.1,0.2l-0.1,0.2l-0.1,0.1l-0.2,0.2l-0.1,0.1c-0.1,0.1-0.1,0.1-0.2,0.2
		l-0.1,0.1l-0.2,0.3l-0.1,0.1c-0.1,0.1-0.2,0.2-0.3,0.3l-0.1,0.1c-0.1,0.1-0.2,0.3-0.4,0.4l-0.4,0.4l0,0l0,0l-0.2,0.2l-0.1,0.1
		l-0.1,0.1l-0.2,0.2l-0.1,0.1l0,0l-0.3,0.3l0,0l-0.2,0.1l-0.2,0.2l0,0l0,0l-0.3,0.3l0,0l0,0l-0.3,0.2l0,0l-0.1,0.1
		c-0.3,0.3-0.6,0.5-0.8,0.7l0,0l-0.2,0.1l-0.6,0.5l0,0l-0.1,0.1c-0.8,0.7-1.4,1.2-2,1.8l-0.1,0.1c-0.3,0.3-0.6,0.7-0.9,1l0,0
		c-0.1,0.2-0.2,0.3-0.4,0.5l-0.1,0.1l-0.1,0.1l-0.1,0.1l-0.1,0.1l0,0l-0.1,0.2l0,0l-0.1,0.2L346.7,223.7z"/>
	<path class="st7" d="M443,272c-7.8-4.7-14.3-12.5-17.3-16.1c-2.6-3.2-2.8-6.6-4.8-10.3c-9.2-2.1-36.7-12.9-45.1-16.6
		c-7.6-3.4-24.1-5-29-5.4c-1,2.1-1.3,5-1.7,11.3c-0.8,13.6-22.4,30.7-23.9,31.9c0.9,0.2,14.7,4.2,21.7,10.9l0,0l0,0
		c14.2-5.2,19.1,6.1,30.2,5.9c2.1,0,46.5,0.2,56.3,0s12.6,4.9,12.6,4.9l0.6,0.7l-0.6-1C442.2,282.7,442.3,277.4,443,272"/>
	<path class="st8" d="M443,272c-7.8-4.7-14.3-12.5-17.3-16.1c-2.6-3.2-2.8-6.6-4.8-10.3c-9.2-2.1-36.7-12.9-45.1-16.6
		c-7.6-3.4-24.1-5-29-5.4c-1,2.1-1.3,5-1.7,11.3c-0.8,13.6-22.4,30.7-23.9,31.9c0.9,0.2,14.7,4.2,21.7,10.9l0,0l0,0
		c14.2-5.2,19.1,6.1,30.2,5.9c2.1,0,46.5,0.2,56.3,0s12.6,4.9,12.6,4.9l0.6,0.7l-0.6-1C442.2,282.7,442.2,277.4,443,272z"/>
	<path class="st9" d="M443.5,308.6c0,0,11.6,1.2,14.7-0.1s4.1-1.9,4-6.4c-0.1-5.8,11.4-9.3,17.9-11.4c0,0-3.5-3.7-2.5-6.9
		c0.6-2,1.7-3.8,3.3-5.2l10-0.1c3.2-5.3,9.8-15.7,29.4-14.8c0,0-0.6-8.9,5.2-12.2c5-2.9,8.8-5.1,8.4-12.2l0.5-0.1
		c-2.8,0.2-5.6,0-8.3,0c-9.5,0.2-23.1,5-26.3,11.2c-3.4,6.4-9.8,8.8-17.7,9.2c-6.9,0.3-10.3,1-16.3,0.1c0.2,4.6,1.2,8.9-6.5,11.5
		h-8.6c-1.6-4.5-5.4-6.7-11.5-6.6H439c1,2.6,1.4,5.1,3.9,7.5l0,0c-0.8,5.4-0.8,10.6-1.1,16.2l0.6,1l1.2,2
		C443.5,296.9,443.6,302.7,443.5,308.6C442.7,308.6,443.5,308.5,443.5,308.6"/>
	<path class="st10" d="M552.7,185.6c-7.6-0.6-9.2,0.2-13.1-3s-7.5-4.6-12.9-7.4s-11.5-3.9-14.3-1.6s-9,5.7-12.1,5.1
		s-3.4-6.8-3.4-8.9s-5.1-5.1-8-3.9s-3.5,0.4-8.2-0.8s-4.7-2-11.9,1.8s-10.8,6.6-19,10.5c-7.1,3.4-13.6,0.6-16.3,2
		c0.5,5.9-2.8,10.6-7.3,15.3c-4.4,4.5-8.2,9.6-11.4,15h-0.1l0.1,0.1l0.4,0.1l0.4-0.1h19.7c1.9,0,9.1,5.5,16.7,6.6l0.4,0.1
		c7.8,0.9,11.5,0.1,12.9,2.4s5.9,6.5,9.5,7.1s6.6,1,12.1-3c5-3.6,15.6-9.7,26.9-9.9c1.2,0.1,2.4,0.2,3.5,0.4c12.7-5.4,34-3,37.8-9.3
		c2.2-3.6,4.3-9.1,6.3-13.8C559.2,187.6,556.1,185.9,552.7,185.6"/>
	<path class="st8" d="M552.7,185.6c-7.6-0.6-9.2,0.2-13.1-3s-7.5-4.6-12.9-7.4s-11.5-3.9-14.3-1.6s-9,5.7-12.1,5.1s-3.4-6.8-3.4-8.9
		s-5.1-5.1-8-3.9s-3.5,0.4-8.2-0.8s-4.7-2-11.9,1.8s-10.8,6.6-19,10.5c-7.1,3.4-13.6,0.6-16.3,2c0.5,5.9-2.8,10.6-7.3,15.3
		c-4.4,4.5-8.2,9.6-11.4,15h-0.1l0.1,0.1l0.4,0.1l0.4-0.1h19.7c1.9,0,9.1,5.5,16.7,6.6l0.4,0.1c7.8,0.9,11.5,0.1,12.9,2.4
		s5.9,6.5,9.5,7.1s6.6,1,12.1-3c5-3.6,15.6-9.7,26.9-9.9c1.2,0.1,2.4,0.2,3.5,0.4c12.7-5.4,34-3,37.8-9.3c2.2-3.6,4.3-9.1,6.3-13.8
		C559.3,187.6,556.1,185.9,552.7,185.6z"/>
	<path class="st9" d="M639.2,215.1c-1.5-6.3-15.7-11.4-23-8.5c-2.5,1-6.5-3.4-10.9-2.7c-10,1.6-18.4,2.3-21.7,0.6
		c-5-2.6-2.6-8.9,0.5-12.9s1-11.2-2.8-13.5s-12.7,0.4-15.7,4s-6.5,15.5-10.4,21.7s-25.1,3.8-37.8,9.2c17.1,2.5,26,15.7,26.2,21.7
		h0.2c3.1,0,6,1.6,7.6,4.3c4.4,0.3,8.9,0.2,13.3-0.2c12.7-1.5,16.5-3.3,21.8-5.5s17.1-0.8,22.1,4.3c3.5,3.4,7.5,6.3,11.9,8.6
		c8.4,3,12.4-4,11.7-7.7s0.4-4.1,3.8-8.1S640.7,221.4,639.2,215.1z"/>
	<path class="st8" d="M433.4,178.5L433.4,178.5c-4.8-0.6-11.4-0.3-14.5-3.5c-2.5-2.6-6.6-3.7-12.6-0.9c-4,1.9-8.3,3.2-12.7,3.9
		c-8.1,1-20-3.3-25.8,7.4h-9.1c-9.6-5.6-16.8-5.6-25.2-5.6h0.1c-1.3,1.7-2.7,3.2-4.2,4.7c0.9,2.9-2.8,4.9,3.9,7.1s3.1,8.2,3.1,8.2
		l-0.4,0.1h20h0.1l0,0.1c1,0.5,8,3.7,14,4.3c6.5,0.6,18.9,1.1,28.5,3.3s13.2,2.2,16.2,2.2c3.2-5.4,7-10.5,11.4-15
		C430.9,189.7,434.3,184.8,433.4,178.5z"/>
	<path class="st8" d="M307.2,317c2.8,0.2,5.7,0.1,8.5-0.2c4.9-0.7,4.2,5.6,7.9,5.9c3.5,0.3,7-1.7,9.4-3.8c7.1,0.1,14.1,0.2,21.2,0.3
		c0.2,2.7,0.4,5.5,0.6,8.2h4.1c5.2-0.9,3.4,3.9,2.9,6.2c-0.7,2.8-2.9,5-5.7,5.9c-7.6,2.2-4.9,6.7-1.4,7.9c4.3,1.5,8.6,2.5,5.8,7.4
		c-1,1.7-3.3,3.3-4.5,5s1.2,2.9,2.9,1.9c2.8-1.6,5.7-3,8.5-4.5c5.4,0.5,10.8,0.6,16.2,0.2c2.4-0.2,2.8-2.4,5.1-3.2s6.7-2.8,10.1,3.3
		l0,0c2.6,0.4,5.2,0.5,7.8,0.2c5.9-0.4,8.3,3.6,7.3,7.5s6,4.1,8.5,3s4.9-4.2,2.5-5.7c-5.7-3.6-5.1-8.6,4.2-8.1
		c3.1,0.1,8.9-3.3,10.8-4.1s4.4-1,4.4-3s-2.6-2.2-5.8-2.7c-7.1-1.1-7.8-12.8-7.4-16.5c0.3-3,1.2-3.7,2-5.2c1.4-3.2,2.6-6.6,3.5-10
		c1-3.3,6-4.3,6.7-4.4c0.1-5.8,0.1-11.6,0.2-17.3l-1.2-2l-0.6-0.7c0,0-2.8-5-12.6-4.9s-54.3-0.1-56.3,0c-11.1,0.2-16-11.1-30.2-5.9
		l0,0l0,0c-3.5,2.7-3.9,6-5.3,11.8s-8,5.9-11.5,8.7C321.1,302,316.7,313.3,307.2,317z"/>
	<g class="st14">
		
			<image style="overflow:visible;enable-background:new    ;" width="125" height="124" xlink:href="67A13AE5151ECFA1.png"  transform="matrix(1 0 0 1 217.84 72)">
		</image>
	</g>
	<g class="st14">
		
			<image style="overflow:visible;enable-background:new    ;" width="124" height="124" xlink:href="67A13AE5151ECFA3.png"  transform="matrix(1 0 0 1 366.84 135)">
		</image>
	</g>
	<path class="st15" d="M428.8,171.5c14.1,0,25.6,11.4,25.6,25.6s-11.4,25.6-25.6,25.6c-14.1,0-25.6-11.4-25.6-25.6c0,0,0,0,0,0
		C403.2,183,414.7,171.5,428.8,171.5L428.8,171.5z M428.8,221.9c13.7,0,24.9-11.1,24.9-24.9s-11.1-24.9-24.9-24.9
		s-24.9,11.1-24.9,24.9c0,0,0,0,0,0C403.9,210.8,415,221.9,428.8,221.9L428.8,221.9z"/>
	<path class="st15" d="M428.8,221.9c13.7,0,24.9-11.1,24.9-24.9s-11.1-24.9-24.9-24.9s-24.9,11.1-24.9,24.9c0,0,0,0,0,0
		C403.9,210.8,415,221.9,428.8,221.9L428.8,221.9z"/>
	<polygon class="st15" points="429,222.5 430,222.5 430,298.7 429,298.7 429,222.5 	"/>
	<circle class="st7" cx="428.8" cy="197.5" r="14.3"/>
	<text transform="matrix(1 -6.108614e-03 6.108614e-03 1 420.47 204.48)" class="st15 st16 st17">4</text>
	<g class="st14">
		
			<image style="overflow:visible;enable-background:new    ;" width="124" height="124" xlink:href="67A13AE5151ECFA6.png"  transform="matrix(1 0 0 1 489.84 59)">
		</image>
	</g>
	<path class="st15" d="M551.4,95.6c14.1,0,25.6,11.4,25.6,25.6s-11.4,25.6-25.6,25.6c-14.1,0-25.6-11.4-25.6-25.6
		C525.9,107,537.3,95.6,551.4,95.6z M551.4,146c13.7,0,24.9-11.1,24.9-24.9c0-13.7-11.1-24.9-24.9-24.9c-13.7,0-24.9,11.1-24.9,24.9
		c0,0,0,0,0,0C526.6,134.9,537.7,146,551.4,146L551.4,146z"/>
	<path class="st15" d="M551.4,146c13.7,0,24.9-11.1,24.9-24.9c0-13.7-11.1-24.9-24.9-24.9c-13.7,0-24.9,11.1-24.9,24.9c0,0,0,0,0,0
		C526.6,134.9,537.7,146,551.4,146z"/>
	<polygon class="st15" points="551.7,146.5 552.7,146.5 552.7,222.8 551.7,222.8 551.7,146.5 	"/>
	<circle class="st9" cx="551.4" cy="121.6" r="14.3"/>
	<text transform="matrix(1 -6.108614e-03 6.108614e-03 1 544.3 128.54)" class="st15 st16 st17">2</text>
	<g class="st14">
		
			<image style="overflow:visible;enable-background:new    ;" width="124" height="124" xlink:href="67A13AE5151ECFA7.png"  transform="matrix(1 0 0 1 472.84 -4.882813e-05)">
		</image>
	</g>
	<path class="st15" d="M535.1,36c14.1,0,25.6,11.4,25.6,25.6c0,14.1-11.4,25.6-25.6,25.6c-14.1,0-25.6-11.4-25.6-25.6c0,0,0,0,0,0
		C509.5,47.5,521,36,535.1,36z M535.1,86.4c13.7,0,24.9-11.1,24.9-24.9s-11.1-24.9-24.9-24.9s-24.9,11.1-24.9,24.9c0,0,0,0,0,0
		C510.2,75.3,521.4,86.4,535.1,86.4z"/>
	<path class="st15" d="M535.1,86.4c13.7,0,24.9-11.1,24.9-24.9s-11.1-24.9-24.9-24.9s-24.9,11.1-24.9,24.9c0,0,0,0,0,0
		C510.2,75.3,521.4,86.4,535.1,86.4z"/>
	<polygon class="st15" points="534.5,86.9 535.8,86.9 535.8,204.1 534.5,204.1 534.5,86.9 	"/>
	<circle class="st10" cx="535.1" cy="62" r="14.3"/>
	<text transform="matrix(1 0 0 1 527.9199 70.1099)" class="st15 st16 st17">3</text>
	<g class="st18">
		
			<image style="overflow:visible;enable-background:new    ;" width="86" height="77" xlink:href="67A13AE5151ECFA2.png"  transform="matrix(1 0 0 1 238.84 197)">
		</image>
	</g>
	<g class="st18">
		
			<image style="overflow:visible;enable-background:new    ;" width="86" height="77" xlink:href="67A13AE5151ECFAD.png"  transform="matrix(1 0 0 1 492.84 166)">
		</image>
	</g>
	<g class="st18">
		
			<image style="overflow:visible;enable-background:new    ;" width="86" height="78" xlink:href="67A13AE5151ECFAE.png"  transform="matrix(1 0 0 1 385.84 259.9999)">
		</image>
	</g>
	<g class="st18">
		
			<image style="overflow:visible;enable-background:new    ;" width="86" height="78" xlink:href="67A13AE5151ECFAF.png"  transform="matrix(1 0 0 1 509.84 184)">
		</image>
	</g>
	<path class="st15" d="M280.4,108.4c14.1,0,25.6,11.4,25.6,25.6c0,14.1-11.4,25.6-25.6,25.6c-14.1,0-25.6-11.4-25.6-25.6
		c0,0,0,0,0,0C254.9,119.9,266.3,108.5,280.4,108.4z M280.4,158.9c13.7,0,24.9-11.1,24.9-24.9s-11.1-24.9-24.9-24.9
		s-24.9,11.1-24.9,24.9l0,0C255.6,147.7,266.7,158.8,280.4,158.9z"/>
	<path class="st15" d="M280.4,158.9c13.7,0,24.9-11.1,24.9-24.9s-11.1-24.9-24.9-24.9s-24.9,11.1-24.9,24.9l0,0
		C255.6,147.7,266.7,158.8,280.4,158.9z"/>
	<polygon class="st15" points="280.6,159.4 281.7,159.4 281.6,235.7 280.6,235.7 280.6,159.4 	"/>
	<circle class="st11" cx="280.4" cy="134.4" r="14.3"/>
	<text transform="matrix(1 0 0 1 275.58 142.55)" class="st15 st16 st17">1</text>
	<rect x="420" y="109.6" class="st19" width="101.7" height="25"/>
	<text transform="matrix(1 0 0 1 420 123.8)" class="st15 st20 st21">Subred Sur</text>
	<rect x="123.1" y="127" class="st19" width="140" height="35"/>
	<text transform="matrix(1 0 0 1 123.08 141.2849)" class="st15 st20 st21">Subred Norte</text>
	<rect x="300" y="51.5" class="st19" width="256.4" height="33"/>
	<text transform="matrix(1 0 0 1 300 65.8)" class="st15 st20 st21">Subred Centro Oriente</text>
	<text transform="matrix(1 0 0 1 313.0266 161.299)" class="st15 st20 st21">Subred Sur Occidente</text>
</g>
</svg>
