%!Adobe-FontList 1.20
%Locale:0x409

%BeginFont
Handler:DirectoryHandler
FontType:TrueType
FontName:ArialMT
FamilyName:Arial
StyleName:Regular
MenuName:Arial
StyleBits:0
WeightClass:400
WidthClass:5
AngleClass:0
FullName:Arial
WritingScript:Roman
OutlineFileName:/Volumes/Transcend/LILIANA BELLO/DISEÑO/LEVEL CODE/SECRE SALUD/AUTOREGULACION/LISTAS CHEQUEO/PDF LISTAS/NEW NAMES/Autoevaluacion_vehiculos_carrozas_funebres/Carpeta Autoevaluacion_vehiculos_carrozas_funebres/Document fonts/Arial.ttf
DataFormat:sfntData
hasSVG:no
VariableFontType:NonVariableFont
FileLength:773236
FileModTime:529564742
NameArray:0,Mac,4,Arial
NameArray:0,Win,1,Arial
%EndFont

%BeginFont
Handler:DirectoryHandler
FontType:Type1
FontName:GothamRounded-Bold
FamilyName:Gotham Rounded
StyleName:Bold
MenuName:Gotham Rounded Bold
StyleBits:0
WeightClass:400
WidthClass:5
AngleClass:0
FullName:Gotham Rounded Bold
WritingScript:Roman
OutlineFileName:/Volumes/Transcend/LILIANA BELLO/DISEÑO/LEVEL CODE/SECRE SALUD/AUTOREGULACION/LISTAS CHEQUEO/PDF LISTAS/NEW NAMES/Autoevaluacion_vehiculos_carrozas_funebres/Carpeta Autoevaluacion_vehiculos_carrozas_funebres/Document fonts/GothamRoundedBold_21016.ttf
DataFormat:sfntData
UsesStandardEncoding:yes
isCFF:yes
hasSVG:no
VariableFontType:NonVariableFont
FileLength:133644
FileModTime:490656228
NameArray:0,Mac,4,Gotham Rounded Bold
NameArray:0,Win,1,Gotham Rounded Bold
NameArray:0,Win,16,Gotham Rounded
%EndFont

%BeginFont
Handler:DirectoryHandler
FontType:Invalid
OutlineFileName:/Volumes/Transcend/LILIANA BELLO/DISEÑO/LEVEL CODE/SECRE SALUD/AUTOREGULACION/LISTAS CHEQUEO/PDF LISTAS/NEW NAMES/Autoevaluacion_vehiculos_carrozas_funebres/Carpeta Autoevaluacion_vehiculos_carrozas_funebres/Document fonts/._GothamRoundedBold_21016.ttf
FileLength:4096
FileModTime:575777166
%EndFont

%BeginFont
Handler:DirectoryHandler
FontType:Type1
FontName:GothamRounded-Light
FamilyName:Gotham Rounded
StyleName:Light
MenuName:Gotham Rounded Light
StyleBits:0
WeightClass:300
WidthClass:5
AngleClass:0
FullName:Gotham Rounded Light
WritingScript:Roman
OutlineFileName:/Volumes/Transcend/LILIANA BELLO/DISEÑO/LEVEL CODE/SECRE SALUD/AUTOREGULACION/LISTAS CHEQUEO/PDF LISTAS/NEW NAMES/Autoevaluacion_vehiculos_carrozas_funebres/Carpeta Autoevaluacion_vehiculos_carrozas_funebres/Document fonts/GothamRoundedLight_21020.ttf
DataFormat:sfntData
UsesStandardEncoding:yes
isCFF:yes
hasSVG:no
VariableFontType:NonVariableFont
FileLength:131844
FileModTime:490656228
NameArray:0,Mac,4,Gotham Rounded Light
NameArray:0,Win,1,Gotham Rounded Light
NameArray:0,Win,16,Gotham Rounded
%EndFont

%BeginFont
Handler:DirectoryHandler
FontType:Invalid
OutlineFileName:/Volumes/Transcend/LILIANA BELLO/DISEÑO/LEVEL CODE/SECRE SALUD/AUTOREGULACION/LISTAS CHEQUEO/PDF LISTAS/NEW NAMES/Autoevaluacion_vehiculos_carrozas_funebres/Carpeta Autoevaluacion_vehiculos_carrozas_funebres/Document fonts/._GothamRoundedLight_21020.ttf
FileLength:4096
FileModTime:575777166
%EndFont

%BeginFont
Handler:DirectoryHandler
FontType:Type1
FontName:GothamRounded-Medium
FamilyName:Gotham Rounded
StyleName:Medium
MenuName:Gotham Rounded Medium
StyleBits:0
WeightClass:350
WidthClass:5
AngleClass:0
FullName:Gotham Rounded Medium
WritingScript:Roman
OutlineFileName:/Volumes/Transcend/LILIANA BELLO/DISEÑO/LEVEL CODE/SECRE SALUD/AUTOREGULACION/LISTAS CHEQUEO/PDF LISTAS/NEW NAMES/Autoevaluacion_vehiculos_carrozas_funebres/Carpeta Autoevaluacion_vehiculos_carrozas_funebres/Document fonts/GothamRoundedMedium_21022.ttf
DataFormat:sfntData
UsesStandardEncoding:yes
isCFF:yes
hasSVG:no
VariableFontType:NonVariableFont
FileLength:125676
FileModTime:490656228
NameArray:0,Mac,4,Gotham Rounded Medium
NameArray:0,Win,1,Gotham Rounded Medium
NameArray:0,Win,16,Gotham Rounded
%EndFont

%BeginFont
Handler:DirectoryHandler
FontType:Invalid
OutlineFileName:/Volumes/Transcend/LILIANA BELLO/DISEÑO/LEVEL CODE/SECRE SALUD/AUTOREGULACION/LISTAS CHEQUEO/PDF LISTAS/NEW NAMES/Autoevaluacion_vehiculos_carrozas_funebres/Carpeta Autoevaluacion_vehiculos_carrozas_funebres/Document fonts/._GothamRoundedMedium_21022.ttf
FileLength:4096
FileModTime:575777166
%EndFont

