%!Adobe-FontList 1.20
%Locale:0x409

%BeginFont
Handler:DirectoryHandler
FontType:Type1
FontName:GothamRounded-Bold
FamilyName:Gotham Rounded
StyleName:Bold
MenuName:Gotham Rounded Bold
StyleBits:0
WeightClass:400
WidthClass:5
AngleClass:0
FullName:Gotham Rounded Bold
WritingScript:Roman
OutlineFileName:/Volumes/Transcend/LILIANA BELLO/DISEÑO/LEVEL CODE/SECRE SALUD/AUTOREGULACION/LISTAS CHEQUEO/PDF LISTAS/NEW NAMES/Autoevaluacion_opticas_talleres_opticos/Carpeta Autoevaluacion_opticas_talleres_opticos/Document fonts/GothamRoundedBold_21016.ttf
DataFormat:sfntData
UsesStandardEncoding:yes
isCFF:yes
hasSVG:no
VariableFontType:NonVariableFont
FileLength:133644
FileModTime:490656228
NameArray:0,Mac,4,Gotham Rounded Bold
NameArray:0,Win,1,Gotham Rounded Bold
NameArray:0,Win,16,Gotham Rounded
%EndFont

%BeginFont
Handler:DirectoryHandler
FontType:Invalid
OutlineFileName:/Volumes/Transcend/LILIANA BELLO/DISEÑO/LEVEL CODE/SECRE SALUD/AUTOREGULACION/LISTAS CHEQUEO/PDF LISTAS/NEW NAMES/Autoevaluacion_opticas_talleres_opticos/Carpeta Autoevaluacion_opticas_talleres_opticos/Document fonts/._GothamRoundedBold_21016.ttf
FileLength:4096
FileModTime:575776856
%EndFont

%BeginFont
Handler:DirectoryHandler
FontType:Type1
FontName:GothamRounded-BoldItalic
FamilyName:Gotham Rounded
StyleName:Bold Italic
MenuName:Gotham Rounded Bold
StyleBits:1
WeightClass:400
WidthClass:5
AngleClass:1
FullName:Gotham Rounded Bold Italic
WritingScript:Roman
OutlineFileName:/Volumes/Transcend/LILIANA BELLO/DISEÑO/LEVEL CODE/SECRE SALUD/AUTOREGULACION/LISTAS CHEQUEO/PDF LISTAS/NEW NAMES/Autoevaluacion_opticas_talleres_opticos/Carpeta Autoevaluacion_opticas_talleres_opticos/Document fonts/GothamRounded-BoldItalic.otf
DataFormat:sfntData
UsesStandardEncoding:yes
isCFF:yes
hasSVG:no
VariableFontType:NonVariableFont
FileLength:130912
FileModTime:490656228
NameArray:0,Mac,4,Gotham Rounded Bold Italic
NameArray:0,Win,1,Gotham Rounded Bold
NameArray:0,Win,16,Gotham Rounded
%EndFont

%BeginFont
Handler:DirectoryHandler
FontType:Invalid
OutlineFileName:/Volumes/Transcend/LILIANA BELLO/DISEÑO/LEVEL CODE/SECRE SALUD/AUTOREGULACION/LISTAS CHEQUEO/PDF LISTAS/NEW NAMES/Autoevaluacion_opticas_talleres_opticos/Carpeta Autoevaluacion_opticas_talleres_opticos/Document fonts/._GothamRounded-BoldItalic.otf
FileLength:4096
FileModTime:575776856
%EndFont

%BeginFont
Handler:DirectoryHandler
FontType:Type1
FontName:GothamRounded-Light
FamilyName:Gotham Rounded
StyleName:Light
MenuName:Gotham Rounded Light
StyleBits:0
WeightClass:300
WidthClass:5
AngleClass:0
FullName:Gotham Rounded Light
WritingScript:Roman
OutlineFileName:/Volumes/Transcend/LILIANA BELLO/DISEÑO/LEVEL CODE/SECRE SALUD/AUTOREGULACION/LISTAS CHEQUEO/PDF LISTAS/NEW NAMES/Autoevaluacion_opticas_talleres_opticos/Carpeta Autoevaluacion_opticas_talleres_opticos/Document fonts/GothamRoundedLight_21020.ttf
DataFormat:sfntData
UsesStandardEncoding:yes
isCFF:yes
hasSVG:no
VariableFontType:NonVariableFont
FileLength:131844
FileModTime:490656228
NameArray:0,Mac,4,Gotham Rounded Light
NameArray:0,Win,1,Gotham Rounded Light
NameArray:0,Win,16,Gotham Rounded
%EndFont

%BeginFont
Handler:DirectoryHandler
FontType:Invalid
OutlineFileName:/Volumes/Transcend/LILIANA BELLO/DISEÑO/LEVEL CODE/SECRE SALUD/AUTOREGULACION/LISTAS CHEQUEO/PDF LISTAS/NEW NAMES/Autoevaluacion_opticas_talleres_opticos/Carpeta Autoevaluacion_opticas_talleres_opticos/Document fonts/._GothamRoundedLight_21020.ttf
FileLength:4096
FileModTime:575776856
%EndFont

%BeginFont
Handler:DirectoryHandler
FontType:Type1
FontName:GothamRounded-LightItalic
FamilyName:Gotham Rounded
StyleName:Light Italic
MenuName:Gotham Rounded Light
StyleBits:1
WeightClass:300
WidthClass:5
AngleClass:1
FullName:Gotham Rounded Light Italic
WritingScript:Roman
OutlineFileName:/Volumes/Transcend/LILIANA BELLO/DISEÑO/LEVEL CODE/SECRE SALUD/AUTOREGULACION/LISTAS CHEQUEO/PDF LISTAS/NEW NAMES/Autoevaluacion_opticas_talleres_opticos/Carpeta Autoevaluacion_opticas_talleres_opticos/Document fonts/GothamRounded-LightItalic.otf
DataFormat:sfntData
UsesStandardEncoding:yes
isCFF:yes
hasSVG:no
VariableFontType:NonVariableFont
FileLength:126664
FileModTime:490656228
NameArray:0,Mac,4,Gotham Rounded Light Italic
NameArray:0,Win,1,Gotham Rounded Light
NameArray:0,Win,16,Gotham Rounded
%EndFont

%BeginFont
Handler:DirectoryHandler
FontType:Invalid
OutlineFileName:/Volumes/Transcend/LILIANA BELLO/DISEÑO/LEVEL CODE/SECRE SALUD/AUTOREGULACION/LISTAS CHEQUEO/PDF LISTAS/NEW NAMES/Autoevaluacion_opticas_talleres_opticos/Carpeta Autoevaluacion_opticas_talleres_opticos/Document fonts/._GothamRounded-LightItalic.otf
FileLength:4096
FileModTime:575776856
%EndFont

%BeginFont
Handler:DirectoryHandler
FontType:Type1
FontName:GothamRounded-Medium
FamilyName:Gotham Rounded
StyleName:Medium
MenuName:Gotham Rounded Medium
StyleBits:0
WeightClass:350
WidthClass:5
AngleClass:0
FullName:Gotham Rounded Medium
WritingScript:Roman
OutlineFileName:/Volumes/Transcend/LILIANA BELLO/DISEÑO/LEVEL CODE/SECRE SALUD/AUTOREGULACION/LISTAS CHEQUEO/PDF LISTAS/NEW NAMES/Autoevaluacion_opticas_talleres_opticos/Carpeta Autoevaluacion_opticas_talleres_opticos/Document fonts/GothamRoundedMedium_21022.ttf
DataFormat:sfntData
UsesStandardEncoding:yes
isCFF:yes
hasSVG:no
VariableFontType:NonVariableFont
FileLength:125676
FileModTime:490656228
NameArray:0,Mac,4,Gotham Rounded Medium
NameArray:0,Win,1,Gotham Rounded Medium
NameArray:0,Win,16,Gotham Rounded
%EndFont

%BeginFont
Handler:DirectoryHandler
FontType:Invalid
OutlineFileName:/Volumes/Transcend/LILIANA BELLO/DISEÑO/LEVEL CODE/SECRE SALUD/AUTOREGULACION/LISTAS CHEQUEO/PDF LISTAS/NEW NAMES/Autoevaluacion_opticas_talleres_opticos/Carpeta Autoevaluacion_opticas_talleres_opticos/Document fonts/._GothamRoundedMedium_21022.ttf
FileLength:4096
FileModTime:575776856
%EndFont

